sim/h_auipc.vcd
$date
	Sun Jun 21 01:38:23 2026
$end
$version
	Icarus Verilog
$end
$timescale
	1ps
$end
$scope module H_AUIPC $end
$var reg 1 ! clk $end
$var reg 1 " reset $end
$var integer 32 # errors [31:0] $end
$var integer 32 $ i [31:0] $end
$upscope $end
$scope module H_AUIPC $end
$scope module test_cpu $end
$var wire 1 % FLUSH_E $end
$var wire 32 & NOP [31:0] $end
$var wire 32 ' WIRED4_F [31:0] $end
$var wire 1 ! clk $end
$var wire 1 " reset $end
$var wire 1 ( WE_M $end
$var wire 1 ) WE_E $end
$var wire 1 * WE_D $end
$var wire 32 + WBMEMMUX_OUT [31:0] $end
$var wire 32 , WBDataW [31:0] $end
$var wire 1 - SZ_M $end
$var wire 1 . SZ_E $end
$var wire 1 / SZ_D $end
$var wire 32 0 RS2MUX_OUT [31:0] $end
$var wire 2 1 RS2MUX [1:0] $end
$var wire 32 2 RS2M [31:0] $end
$var wire 32 3 RS2E [31:0] $end
$var wire 32 4 RS2D [31:0] $end
$var wire 32 5 RS1MUX_OUT [31:0] $end
$var wire 2 6 RS1MUX [1:0] $end
$var wire 32 7 RS1E [31:0] $end
$var wire 32 8 RS1D [31:0] $end
$var wire 2 9 REG_MUX_W [1:0] $end
$var wire 2 : REG_MUX_M [1:0] $end
$var wire 2 ; REG_MUX_E [1:0] $end
$var wire 2 < REG_MUX_D [1:0] $end
$var wire 1 = REG_EN_W $end
$var wire 1 > REG_EN_M $end
$var wire 1 ? REG_EN_E $end
$var wire 1 @ REG_EN_D $end
$var wire 32 A PCPlusImmE [31:0] $end
$var wire 32 B PCPlus4W [31:0] $end
$var wire 32 C PCPlus4M [31:0] $end
$var wire 32 D PCPlus4F [31:0] $end
$var wire 32 E PCPlus4E [31:0] $end
$var wire 32 F PCPlus4D [31:0] $end
$var wire 32 G PCMUX_OUT [31:0] $end
$var wire 1 H PCMUX $end
$var wire 32 I PCF [31:0] $end
$var wire 32 J PCE [31:0] $end
$var wire 32 K PCD [31:0] $end
$var wire 2 L NUM_BYTES_M [1:0] $end
$var wire 2 M NUM_BYTES_E [1:0] $end
$var wire 2 N NUM_BYTES_D [1:0] $end
$var wire 32 O MEMW [31:0] $end
$var wire 32 P MEMM [31:0] $end
$var wire 1 Q JUMP_E $end
$var wire 1 R JUMP_D $end
$var wire 1 S JALR_E $end
$var wire 1 T JALR_D $end
$var wire 32 U JALRMUX_OUT [31:0] $end
$var wire 32 V InstrW [31:0] $end
$var wire 32 W InstrMUX_OUT [31:0] $end
$var wire 1 X InstrMUX $end
$var wire 32 Y InstrM [31:0] $end
$var wire 32 Z InstrF [31:0] $end
$var wire 32 [ InstrE [31:0] $end
$var wire 32 \ InstrD [31:0] $end
$var wire 32 ] ImmW [31:0] $end
$var wire 32 ^ ImmM [31:0] $end
$var wire 32 _ ImmE [31:0] $end
$var wire 32 ` ImmD [31:0] $end
$var wire 32 a CTAddrE [31:0] $end
$var wire 1 b BR_EN_E $end
$var wire 1 c BR_EN_D $end
$var wire 4 d ALU_SEL_E [3:0] $end
$var wire 4 e ALU_SEL_D [3:0] $end
$var wire 32 f ALUW [31:0] $end
$var wire 32 g ALUMUX2_OUT [31:0] $end
$var wire 1 h ALUMUX2_E $end
$var wire 1 i ALUMUX2_D $end
$var wire 32 j ALUMUX1_OUT [31:0] $end
$var wire 1 k ALUMUX1_E $end
$var wire 1 l ALUMUX1_D $end
$var wire 32 m ALUM [31:0] $end
$var wire 32 n ALUE [31:0] $end
$upscope $end
$upscope $end
$enddefinitions $end
$comment Show the parameter values. $end
$dumpall
$end
#0
$dumpvars
bx n
bx m
xl
xk
bx j
xi
xh
bx g
bx f
bx e
bx d
xc
xb
bx a
bx `
bx _
bx ^
bx ]
bx \
bx [
bx Z
bx Y
xX
bx W
bx V
bx U
xT
xS
xR
xQ
bx P
bx O
bx N
bx M
bx L
bx K
bx J
bx I
xH
bx G
bx F
bx E
bx D
bx C
bx B
bx A
x@
x?
x>
x=
bx <
bx ;
bx :
bx 9
bx 8
bx 7
bx 6
bx 5
bx 4
bx 3
bx 2
bx 1
bx 0
x/
x.
x-
bx ,
bx +
x*
x)
x(
b100 '
b0 &
x%
bx $
bx #
1"
0!
$end
#5000
b0 N
0/
0*
0T
0c
0R
b0 e
0i
0l
b0 <
0@
b0 4
b0 8
b100 G
0%
b0 `
b0 U
b0 n
b0 a
b0 A
b0xxxxxxxx P
b0 g
b0 0
b0 1
b0 5
b0 6
b0 F
b0 \
b0 K
0b
0h
b0 j
0k
b0 d
0S
0Q
b0 M
0.
0)
0?
b0 ;
b0 [
b0 E
b0 3
b0 7
b0 _
b0 J
b0 L
0-
0(
0>
b0 +
b0 :
b0 Y
b0 C
b0 2
b0 m
b0 ^
0=
b0 ,
b0 9
b0 V
b0 B
b0 O
b0 f
b0 ]
b10110111 W
0X
0H
b10110111 Z
b100 D
b0 I
1!
#6000
0"
#10000
0!
#15000
b11 <
1@
b10011 W
b10011 Z
b1000 G
b1000 D
b0xxxxxxxx O
b100 F
b10110111 \
b100 I
1!
#20000
0!
#25000
1i
1l
b1 <
b1100 G
b1100 D
b1000 I
b1000 F
b10011 \
b100 K
1?
b11 ;
b10110111 [
b100 E
1!
#30000
0!
#35000
b100 a
b100 A
b10000 G
b10000 D
1>
b11 :
b10110111 Y
b0 +
b100 C
1h
1k
b1 ;
b10011 [
b1000 E
b0 j
b100 J
b1100 F
b1000 K
b1100 I
1!
#40000
0!
#45000
b10100 G
b10100 D
b1000 a
b1000 A
b10000 I
b10000 F
b1100 K
b1100 E
b1000 J
b1 :
b10011 Y
b1000 C
1=
b11 9
b10110111 V
b0 ,
b100 B
1!
#50000
0!
#55000
b1100 a
b1100 A
b11000 G
b11000 D
b1 9
b10011 V
b1000 B
b1100 C
b10000 E
b1100 J
b10100 F
b10000 K
b10100 I
1!
#60000
0!
#65000
b1000010010111 W
b1000010010111 Z
b11100 G
b11100 D
b10000 a
b10000 A
b11000 I
b11000 F
b10100 K
b10100 E
b10000 J
b10000 C
b1100 B
1!
#70000
0!
#75000
0l
b10100 a
b10100 A
b1000000000000 `
bx W
bx Z
b100000 G
b100000 D
b10000 B
b10100 C
b11000 E
b10100 J
b11100 F
b1000010010111 \
b11000 K
b11100 I
1!
#80000
0!
#85000
0i
b0 <
0@
bx 4
bx 8
b100100 G
b100100 D
b0 `
b1000000011000 U
b1000000011000 n
b1000000011000 a
b1000000011000 A
b100000 I
b100000 F
bx \
b11100 K
b11000 j
0k
b1000010010111 [
b11100 E
b1000000000000 g
b1000000000000 _
b11000 J
b11000 C
b10100 B
1!
#90000
0!
#95000
b11100 a
b11100 A
bx U
bx n
b101000 G
b101000 D
b11000 B
b1000010010111 Y
b11100 C
b1000000011000 +
b1000000011000 m
b1000000000000 ^
0h
0?
b0 ;
bx [
b100000 E
bx 0
bx 3
bx 5
bx 7
bx g
b0 _
b11100 j
b11100 J
b100100 F
b100000 K
b100100 I
1!
#100000
0!
#105000
b101100 G
b101100 D
b100000 a
b100000 A
b101000 I
b101000 F
b100100 K
b100100 E
b100000 j
b100000 J
0>
b0 :
bx Y
b100000 C
bx 2
b100000 +
bx m
b0 ^
b1000010010111 V
b11100 B
b1000000011000 ,
b1000000011000 f
b1000000000000 ]
1!
#110000
0!
#115000
b100100 a
b100100 A
b110000 G
b110000 D
0=
b0 9
bx V
b100000 B
b100000 ,
bx f
b0 ]
b100100 +
b100100 C
b101000 E
b100100 j
b100100 J
b101100 F
b101000 K
b101100 I
1!
#120000
0!
#125000
b110100 G
b110100 D
b101000 a
b101000 A
b110000 I
b110000 F
b101100 K
b101100 E
b101000 j
b101000 J
b101000 +
b101000 C
b100100 ,
b100100 B
1!
#130000
0!
#135000
b101100 a
b101100 A
b111000 G
b111000 D
b101000 ,
b101000 B
b101100 +
b101100 C
b110000 E
b101100 j
b101100 J
b110100 F
b110000 K
b110100 I
1!
#140000
0!
#145000
b111100 G
b111100 D
b110000 a
b110000 A
b111000 I
b111000 F
b110100 K
b110100 E
b110000 j
b110000 J
b110000 +
b110000 C
b101100 ,
b101100 B
1!
#150000
0!
#155000
b110100 a
b110100 A
b1000000 G
b1000000 D
b110000 ,
b110000 B
b110100 +
b110100 C
b111000 E
b110100 j
b110100 J
b111100 F
b111000 K
b111100 I
1!
#160000
0!
#165000
b1000100 G
b1000100 D
b111000 a
b111000 A
b1000000 I
b1000000 F
b111100 K
b111100 E
b111000 j
b111000 J
b111000 +
b111000 C
b110100 ,
b110100 B
1!
#170000
0!
#175000
b111100 a
b111100 A
b1001000 G
b1001000 D
b111000 ,
b111000 B
b111100 +
b111100 C
b1000000 E
b111100 j
b111100 J
b1000100 F
b1000000 K
b1000100 I
1!
#180000
0!
#185000
b1001100 G
b1001100 D
b1000000 a
b1000000 A
b1001000 I
b1001000 F
b1000100 K
b1000100 E
b1000000 j
b1000000 J
b1000000 +
b1000000 C
b111100 ,
b111100 B
1!
#190000
0!
#195000
b1000100 a
b1000100 A
b1010000 G
b1010000 D
b1000000 ,
b1000000 B
b1000100 +
b1000100 C
b1001000 E
b1000100 j
b1000100 J
b1001100 F
b1001000 K
b1001100 I
1!
#200000
0!
#205000
b1010100 G
b1010100 D
b1001000 a
b1001000 A
b1010000 I
b1010000 F
b1001100 K
b1001100 E
b1001000 j
b1001000 J
b1001000 +
b1001000 C
b1000100 ,
b1000100 B
1!
#210000
0!
#215000
b1001100 a
b1001100 A
b1011000 G
b1011000 D
b1001000 ,
b1001000 B
b1001100 +
b1001100 C
b1010000 E
b1001100 j
b1001100 J
b1010100 F
b1010000 K
b1010100 I
1!
#220000
0!
#225000
b1011100 G
b1011100 D
b1010000 a
b1010000 A
b1011000 I
b1011000 F
b1010100 K
b1010100 E
b1010000 j
b1010000 J
b1010000 +
b1010000 C
b1001100 ,
b1001100 B
1!
#230000
0!
#235000
b1010100 a
b1010100 A
b1100000 G
b1100000 D
b1010000 ,
b1010000 B
b1010100 +
b1010100 C
b1011000 E
b1010100 j
b1010100 J
b1011100 F
b1011000 K
b1011100 I
1!
#240000
0!
#245000
b1100100 G
b1100100 D
b1011000 a
b1011000 A
b1100000 I
b1100000 F
b1011100 K
b1011100 E
b1011000 j
b1011000 J
b1011000 +
b1011000 C
b1010100 ,
b1010100 B
1!
#250000
0!
#255000
b1011100 a
b1011100 A
b1101000 G
b1101000 D
b1011000 ,
b1011000 B
b1011100 +
b1011100 C
b1100000 E
b1011100 j
b1011100 J
b1100100 F
b1100000 K
b1100100 I
1!
#260000
0!
#265000
b1101100 G
b1101100 D
b1100000 a
b1100000 A
b1101000 I
b1101000 F
b1100100 K
b1100100 E
b1100000 j
b1100000 J
b1100000 +
b1100000 C
b1011100 ,
b1011100 B
1!
#270000
0!
#275000
b1100100 a
b1100100 A
b1110000 G
b1110000 D
b1100000 ,
b1100000 B
b1100100 +
b1100100 C
b1101000 E
b1100100 j
b1100100 J
b1101100 F
b1101000 K
b1101100 I
1!
#280000
0!
#285000
b1110100 G
b1110100 D
b1101000 a
b1101000 A
b1110000 I
b1110000 F
b1101100 K
b1101100 E
b1101000 j
b1101000 J
b1101000 +
b1101000 C
b1100100 ,
b1100100 B
1!
#290000
0!
#295000
b1101100 a
b1101100 A
b1111000 G
b1111000 D
b1101000 ,
b1101000 B
b1101100 +
b1101100 C
b1110000 E
b1101100 j
b1101100 J
b1110100 F
b1110000 K
b1110100 I
1!
#300000
0!
#305000
b1111100 G
b1111100 D
b1110000 a
b1110000 A
b1111000 I
b1111000 F
b1110100 K
b1110100 E
b1110000 j
b1110000 J
b1110000 +
b1110000 C
b1101100 ,
b1101100 B
1!
#310000
0!
#315000
b1110100 a
b1110100 A
b10000000 G
b10000000 D
b1110000 ,
b1110000 B
b1110100 +
b1110100 C
b1111000 E
b1110100 j
b1110100 J
b1111100 F
b1111000 K
b1111100 I
1!
#320000
0!
#325000
b10000100 G
b10000100 D
b1111000 a
b1111000 A
b10000000 I
b10000000 F
b1111100 K
b1111100 E
b1111000 j
b1111000 J
b1111000 +
b1111000 C
b1110100 ,
b1110100 B
1!
#330000
0!
#335000
b1111100 a
b1111100 A
b10001000 G
b10001000 D
b1111000 ,
b1111000 B
b1111100 +
b1111100 C
b10000000 E
b1111100 j
b1111100 J
b10000100 F
b10000000 K
b10000100 I
1!
#340000
0!
#345000
b10001100 G
b10001100 D
b10000000 a
b10000000 A
b10001000 I
b10001000 F
b10000100 K
b10000100 E
b10000000 j
b10000000 J
b10000000 +
b10000000 C
b1111100 ,
b1111100 B
1!
#350000
0!
#355000
b10000100 a
b10000100 A
b10010000 G
b10010000 D
b10000000 ,
b10000000 B
b10000100 +
b10000100 C
b10001000 E
b10000100 j
b10000100 J
b10001100 F
b10001000 K
b10001100 I
1!
#360000
0!
#365000
b10010100 G
b10010100 D
b10001000 a
b10001000 A
b10010000 I
b10010000 F
b10001100 K
b10001100 E
b10001000 j
b10001000 J
b10001000 +
b10001000 C
b10000100 ,
b10000100 B
1!
#370000
0!
#375000
b10001100 a
b10001100 A
b10011000 G
b10011000 D
b10001000 ,
b10001000 B
b10001100 +
b10001100 C
b10010000 E
b10001100 j
b10001100 J
b10010100 F
b10010000 K
b10010100 I
1!
#380000
0!
#385000
b10011100 G
b10011100 D
b10010000 a
b10010000 A
b10011000 I
b10011000 F
b10010100 K
b10010100 E
b10010000 j
b10010000 J
b10010000 +
b10010000 C
b10001100 ,
b10001100 B
1!
#390000
0!
#395000
b10010100 a
b10010100 A
b10100000 G
b10100000 D
b10010000 ,
b10010000 B
b10010100 +
b10010100 C
b10011000 E
b10010100 j
b10010100 J
b10011100 F
b10011000 K
b10011100 I
1!
#400000
0!
#405000
b10100100 G
b10100100 D
b10011000 a
b10011000 A
b10100000 I
b10100000 F
b10011100 K
b10011100 E
b10011000 j
b10011000 J
b10011000 +
b10011000 C
b10010100 ,
b10010100 B
1!
#410000
0!
#415000
b10011100 a
b10011100 A
b10101000 G
b10101000 D
b10011000 ,
b10011000 B
b10011100 +
b10011100 C
b10100000 E
b10011100 j
b10011100 J
b10100100 F
b10100000 K
b10100100 I
1!
#420000
0!
#425000
b10101100 G
b10101100 D
b10100000 a
b10100000 A
b10101000 I
b10101000 F
b10100100 K
b10100100 E
b10100000 j
b10100000 J
b10100000 +
b10100000 C
b10011100 ,
b10011100 B
1!
#430000
0!
#435000
b10100100 a
b10100100 A
b10110000 G
b10110000 D
b10100000 ,
b10100000 B
b10100100 +
b10100100 C
b10101000 E
b10100100 j
b10100100 J
b10101100 F
b10101000 K
b10101100 I
1!
#440000
0!
#445000
b10110100 G
b10110100 D
b10101000 a
b10101000 A
b10110000 I
b10110000 F
b10101100 K
b10101100 E
b10101000 j
b10101000 J
b10101000 +
b10101000 C
b10100100 ,
b10100100 B
1!
#450000
0!
#455000
b10101100 a
b10101100 A
b10111000 G
b10111000 D
b10101000 ,
b10101000 B
b10101100 +
b10101100 C
b10110000 E
b10101100 j
b10101100 J
b10110100 F
b10110000 K
b10110100 I
1!
#460000
0!
#465000
b10111100 G
b10111100 D
b10110000 a
b10110000 A
b10111000 I
b10111000 F
b10110100 K
b10110100 E
b10110000 j
b10110000 J
b10110000 +
b10110000 C
b10101100 ,
b10101100 B
1!
#470000
0!
#475000
b10110100 a
b10110100 A
b11000000 G
b11000000 D
b10110000 ,
b10110000 B
b10110100 +
b10110100 C
b10111000 E
b10110100 j
b10110100 J
b10111100 F
b10111000 K
b10111100 I
1!
#480000
0!
#485000
b11000100 G
b11000100 D
b10111000 a
b10111000 A
b11000000 I
b11000000 F
b10111100 K
b10111100 E
b10111000 j
b10111000 J
b10111000 +
b10111000 C
b10110100 ,
b10110100 B
1!
#490000
0!
#495000
b10111100 a
b10111100 A
b11001000 G
b11001000 D
b10111000 ,
b10111000 B
b10111100 +
b10111100 C
b11000000 E
b10111100 j
b10111100 J
b11000100 F
b11000000 K
b11000100 I
1!
#500000
0!
#505000
b11001100 G
b11001100 D
b11000000 a
b11000000 A
b11001000 I
b11001000 F
b11000100 K
b11000100 E
b11000000 j
b11000000 J
b11000000 +
b11000000 C
b10111100 ,
b10111100 B
1!
#510000
0!
#515000
b11000100 a
b11000100 A
b11010000 G
b11010000 D
b11000000 ,
b11000000 B
b11000100 +
b11000100 C
b11001000 E
b11000100 j
b11000100 J
b11001100 F
b11001000 K
b11001100 I
1!
#520000
0!
#525000
b11010100 G
b11010100 D
b11001000 a
b11001000 A
b11010000 I
b11010000 F
b11001100 K
b11001100 E
b11001000 j
b11001000 J
b11001000 +
b11001000 C
b11000100 ,
b11000100 B
1!
#530000
0!
#535000
b11001100 a
b11001100 A
b11011000 G
b11011000 D
b11001000 ,
b11001000 B
b11001100 +
b11001100 C
b11010000 E
b11001100 j
b11001100 J
b11010100 F
b11010000 K
b11010100 I
1!
#540000
0!
#545000
b11011100 G
b11011100 D
b11010000 a
b11010000 A
b11011000 I
b11011000 F
b11010100 K
b11010100 E
b11010000 j
b11010000 J
b11010000 +
b11010000 C
b11001100 ,
b11001100 B
1!
#550000
0!
#555000
b11010100 a
b11010100 A
b11100000 G
b11100000 D
b11010000 ,
b11010000 B
b11010100 +
b11010100 C
b11011000 E
b11010100 j
b11010100 J
b11011100 F
b11011000 K
b11011100 I
1!
#560000
0!
#565000
b11100100 G
b11100100 D
b11011000 a
b11011000 A
b11100000 I
b11100000 F
b11011100 K
b11011100 E
b11011000 j
b11011000 J
b11011000 +
b11011000 C
b11010100 ,
b11010100 B
1!
#570000
0!
#575000
b11011100 a
b11011100 A
b11101000 G
b11101000 D
b11011000 ,
b11011000 B
b11011100 +
b11011100 C
b11100000 E
b11011100 j
b11011100 J
b11100100 F
b11100000 K
b11100100 I
1!
#580000
0!
#585000
b11101100 G
b11101100 D
b11100000 a
b11100000 A
b11101000 I
b11101000 F
b11100100 K
b11100100 E
b11100000 j
b11100000 J
b11100000 +
b11100000 C
b11011100 ,
b11011100 B
1!
#590000
0!
#595000
b11100100 a
b11100100 A
b11110000 G
b11110000 D
b11100000 ,
b11100000 B
b11100100 +
b11100100 C
b11101000 E
b11100100 j
b11100100 J
b11101100 F
b11101000 K
b11101100 I
1!
#600000
0!
#605000
b11110100 G
b11110100 D
b11101000 a
b11101000 A
b11110000 I
b11110000 F
b11101100 K
b11101100 E
b11101000 j
b11101000 J
b11101000 +
b11101000 C
b11100100 ,
b11100100 B
1!
#610000
0!
#615000
b11101100 a
b11101100 A
b11111000 G
b11111000 D
b11101000 ,
b11101000 B
b11101100 +
b11101100 C
b11110000 E
b11101100 j
b11101100 J
b11110100 F
b11110000 K
b11110100 I
1!
#620000
0!
#625000
b11111100 G
b11111100 D
b11110000 a
b11110000 A
b11111000 I
b11111000 F
b11110100 K
b11110100 E
b11110000 j
b11110000 J
b11110000 +
b11110000 C
b11101100 ,
b11101100 B
1!
#630000
0!
#635000
b11110100 a
b11110100 A
b100000000 G
b100000000 D
b11110000 ,
b11110000 B
b11110100 +
b11110100 C
b11111000 E
b11110100 j
b11110100 J
b11111100 F
b11111000 K
b11111100 I
1!
#640000
0!
#645000
bx10110111 W
bx10110111 Z
b100000100 G
b100000100 D
b11111000 a
b11111000 A
b100000000 I
b100000000 F
b11111100 K
b11111100 E
b11111000 j
b11111000 J
b11111000 +
b11111000 C
b11110100 ,
b11110100 B
1!
#650000
0!
#655000
b11 <
1@
b11111100 a
b11111100 A
bx000000000000 `
bx00010011 W
bx00010011 Z
b100001000 G
b100001000 D
b11111000 ,
b11111000 B
b11111100 +
b11111100 C
b100000000 E
b11111100 j
b11111100 J
b100000100 F
bx10110111 \
b100000000 K
b100000100 I
1!
#660000
0!
#665000
1i
1l
b1 <
b100001100 G
b100001100 D
bx `
bx a
bx A
b100001000 I
b100001000 F
bx00010011 \
b100000100 K
1?
b11 ;
bx10110111 [
b100000100 E
bx000000000000 _
b100000000 j
b100000000 J
b100000000 +
b100000000 C
b11111100 ,
b11111100 B
1!
#670000
0!
#675000
b100010000 G
b100010000 D
b100000000 ,
b100000000 B
1>
b11 :
bx10110111 Y
bx000000000000 +
b100000100 C
bx000000000000 ^
1h
1k
b1 ;
bx00010011 [
b100001000 E
bx _
bx j
b100000100 J
b100001100 F
b100001000 K
b100001100 I
1!
#680000
0!
#685000
b100010100 G
b100010100 D
b100010000 I
b100010000 F
b100001100 K
b100001100 E
b100001000 J
b1 :
bx00010011 Y
b100001000 C
bx +
bx ^
1=
b11 9
bx10110111 V
bx000000000000 ,
b100000100 B
bx000000000000 ]
1!
#690000
0!
#695000
b100011000 G
b100011000 D
b1 9
bx00010011 V
b100001000 B
bx ,
bx ]
b100001100 C
b100010000 E
b100001100 J
b100010100 F
b100010000 K
b100010100 I
1!
#700000
0!
#705000
bx10010111 W
bx10010111 Z
b100011100 G
b100011100 D
b100011000 I
b100011000 F
b100010100 K
b100010100 E
b100010000 J
b100010000 C
b100001100 B
1!
#710000
0!
#715000
0l
bx000000000000 `
bx W
bx Z
b100100000 G
b100100000 D
b100010000 B
b100010100 C
b100011000 E
b100010100 J
b100011100 F
bx10010111 \
b100011000 K
b100011100 I
1!
#720000
0!
#725000
0i
b0 <
0@
b100100100 G
b100100100 D
b0 `
b100100000 I
b100100000 F
bx \
b100011100 K
b100011000 j
0k
bx10010111 [
b100011100 E
bx000000000000 g
bx000000000000 _
b100011000 J
b100011000 C
b100010100 B
1!
#730000
0!
#735000
b100011100 a
b100011100 A
b100101000 G
b100101000 D
b100011000 B
bx10010111 Y
b100011100 C
bx000000000000 ^
0h
0?
b0 ;
bx [
b100100000 E
bx g
b0 _
b100011100 j
b100011100 J
b100100100 F
b100100000 K
b100100100 I
1!
#740000
0!
#745000
b100101100 G
b100101100 D
b100100000 a
b100100000 A
b100101000 I
b100101000 F
b100100100 K
b100100100 E
b100100000 j
b100100000 J
0>
b100100000 +
b0 :
bx Y
b100100000 C
b0 ^
bx10010111 V
b100011100 B
bx000000000000 ]
1!
#750000
0!
#755000
b100100100 a
b100100100 A
b100110000 G
b100110000 D
0=
b100100000 ,
b0 9
bx V
b100100000 B
b0 ]
b100100100 +
b100100100 C
b100101000 E
b100100100 j
b100100100 J
b100101100 F
b100101000 K
b100101100 I
1!
#760000
0!
#765000
b100110100 G
b100110100 D
b100101000 a
b100101000 A
b100110000 I
b100110000 F
b100101100 K
b100101100 E
b100101000 j
b100101000 J
b100101000 +
b100101000 C
b100100100 ,
b100100100 B
1!
#770000
0!
#775000
b100101100 a
b100101100 A
b100111000 G
b100111000 D
b100101000 ,
b100101000 B
b100101100 +
b100101100 C
b100110000 E
b100101100 j
b100101100 J
b100110100 F
b100110000 K
b100110100 I
1!
#780000
0!
#785000
b100111100 G
b100111100 D
b100110000 a
b100110000 A
b100111000 I
b100111000 F
b100110100 K
b100110100 E
b100110000 j
b100110000 J
b100110000 +
b100110000 C
b100101100 ,
b100101100 B
1!
#790000
0!
#795000
b100110100 a
b100110100 A
b101000000 G
b101000000 D
b100110000 ,
b100110000 B
b100110100 +
b100110100 C
b100111000 E
b100110100 j
b100110100 J
b100111100 F
b100111000 K
b100111100 I
1!
#800000
0!
#805000
b101000100 G
b101000100 D
b100111000 a
b100111000 A
b101000000 I
b101000000 F
b100111100 K
b100111100 E
b100111000 j
b100111000 J
b100111000 +
b100111000 C
b100110100 ,
b100110100 B
1!
#810000
0!
#815000
b100111100 a
b100111100 A
b101001000 G
b101001000 D
b100111000 ,
b100111000 B
b100111100 +
b100111100 C
b101000000 E
b100111100 j
b100111100 J
b101000100 F
b101000000 K
b101000100 I
1!
#820000
0!
#825000
b101001100 G
b101001100 D
b101000000 a
b101000000 A
b101001000 I
b101001000 F
b101000100 K
b101000100 E
b101000000 j
b101000000 J
b101000000 +
b101000000 C
b100111100 ,
b100111100 B
1!
#830000
0!
#835000
b101000100 a
b101000100 A
b101010000 G
b101010000 D
b101000000 ,
b101000000 B
b101000100 +
b101000100 C
b101001000 E
b101000100 j
b101000100 J
b101001100 F
b101001000 K
b101001100 I
1!
#840000
0!
#845000
b101010100 G
b101010100 D
b101001000 a
b101001000 A
b101010000 I
b101010000 F
b101001100 K
b101001100 E
b101001000 j
b101001000 J
b101001000 +
b101001000 C
b101000100 ,
b101000100 B
1!
#850000
0!
#855000
b101001100 a
b101001100 A
b101011000 G
b101011000 D
b101001000 ,
b101001000 B
b101001100 +
b101001100 C
b101010000 E
b101001100 j
b101001100 J
b101010100 F
b101010000 K
b101010100 I
1!
#860000
0!
#865000
b101011100 G
b101011100 D
b101010000 a
b101010000 A
b101011000 I
b101011000 F
b101010100 K
b101010100 E
b101010000 j
b101010000 J
b101010000 +
b101010000 C
b101001100 ,
b101001100 B
1!
#870000
0!
#875000
b101010100 a
b101010100 A
b101100000 G
b101100000 D
b101010000 ,
b101010000 B
b101010100 +
b101010100 C
b101011000 E
b101010100 j
b101010100 J
b101011100 F
b101011000 K
b101011100 I
1!
#880000
0!
#885000
b101100100 G
b101100100 D
b101011000 a
b101011000 A
b101100000 I
b101100000 F
b101011100 K
b101011100 E
b101011000 j
b101011000 J
b101011000 +
b101011000 C
b101010100 ,
b101010100 B
1!
#890000
0!
#895000
b101011100 a
b101011100 A
b101101000 G
b101101000 D
b101011000 ,
b101011000 B
b101011100 +
b101011100 C
b101100000 E
b101011100 j
b101011100 J
b101100100 F
b101100000 K
b101100100 I
1!
#900000
0!
#905000
b101101100 G
b101101100 D
b101100000 a
b101100000 A
b101101000 I
b101101000 F
b101100100 K
b101100100 E
b101100000 j
b101100000 J
b101100000 +
b101100000 C
b101011100 ,
b101011100 B
1!
#910000
0!
#915000
b101100100 a
b101100100 A
b101110000 G
b101110000 D
b101100000 ,
b101100000 B
b101100100 +
b101100100 C
b101101000 E
b101100100 j
b101100100 J
b101101100 F
b101101000 K
b101101100 I
1!
#920000
0!
#925000
b101110100 G
b101110100 D
b101101000 a
b101101000 A
b101110000 I
b101110000 F
b101101100 K
b101101100 E
b101101000 j
b101101000 J
b101101000 +
b101101000 C
b101100100 ,
b101100100 B
1!
#930000
0!
#935000
b101101100 a
b101101100 A
b101111000 G
b101111000 D
b101101000 ,
b101101000 B
b101101100 +
b101101100 C
b101110000 E
b101101100 j
b101101100 J
b101110100 F
b101110000 K
b101110100 I
1!
#940000
0!
#945000
b101111100 G
b101111100 D
b101110000 a
b101110000 A
b101111000 I
b101111000 F
b101110100 K
b101110100 E
b101110000 j
b101110000 J
b101110000 +
b101110000 C
b101101100 ,
b101101100 B
1!
#950000
0!
#955000
b101110100 a
b101110100 A
b110000000 G
b110000000 D
b101110000 ,
b101110000 B
b101110100 +
b101110100 C
b101111000 E
b101110100 j
b101110100 J
b101111100 F
b101111000 K
b101111100 I
1!
#960000
0!
#965000
b110000100 G
b110000100 D
b101111000 a
b101111000 A
b110000000 I
b110000000 F
b101111100 K
b101111100 E
b101111000 j
b101111000 J
b101111000 +
b101111000 C
b101110100 ,
b101110100 B
1!
#970000
0!
#975000
b101111100 a
b101111100 A
b110001000 G
b110001000 D
b101111000 ,
b101111000 B
b101111100 +
b101111100 C
b110000000 E
b101111100 j
b101111100 J
b110000100 F
b110000000 K
b110000100 I
1!
#980000
0!
#985000
b110001100 G
b110001100 D
b110000000 a
b110000000 A
b110001000 I
b110001000 F
b110000100 K
b110000100 E
b110000000 j
b110000000 J
b110000000 +
b110000000 C
b101111100 ,
b101111100 B
1!
#990000
0!
#995000
b110000100 a
b110000100 A
b110010000 G
b110010000 D
b110000000 ,
b110000000 B
b110000100 +
b110000100 C
b110001000 E
b110000100 j
b110000100 J
b110001100 F
b110001000 K
b110001100 I
1!
#1000000
0!
#1005000
b110010100 G
b110010100 D
b110001000 a
b110001000 A
b110010000 I
b110010000 F
b110001100 K
b110001100 E
b110001000 j
b110001000 J
b110001000 +
b110001000 C
b110000100 ,
b110000100 B
b10 $
b0 #
1!
