sim/h_imm_op.vcd
$date
	Sun Jun 21 01:43:13 2026
$end
$version
	Icarus Verilog
$end
$timescale
	1ps
$end
$scope module H_ImmOp $end
$var reg 1 ! clk $end
$var reg 1 " reset $end
$var integer 32 # errors [31:0] $end
$var integer 32 $ i [31:0] $end
$upscope $end
$scope module H_ImmOp $end
$scope module test_cpu $end
$var wire 1 % FLUSH_E $end
$var wire 32 & NOP [31:0] $end
$var wire 32 ' WIRED4_F [31:0] $end
$var wire 1 ! clk $end
$var wire 1 " reset $end
$var wire 1 ( WE_M $end
$var wire 1 ) WE_E $end
$var wire 1 * WE_D $end
$var wire 32 + WBMEMMUX_OUT [31:0] $end
$var wire 32 , WBDataW [31:0] $end
$var wire 1 - SZ_M $end
$var wire 1 . SZ_E $end
$var wire 1 / SZ_D $end
$var wire 32 0 RS2MUX_OUT [31:0] $end
$var wire 2 1 RS2MUX [1:0] $end
$var wire 32 2 RS2M [31:0] $end
$var wire 32 3 RS2E [31:0] $end
$var wire 32 4 RS2D [31:0] $end
$var wire 32 5 RS1MUX_OUT [31:0] $end
$var wire 2 6 RS1MUX [1:0] $end
$var wire 32 7 RS1E [31:0] $end
$var wire 32 8 RS1D [31:0] $end
$var wire 2 9 REG_MUX_W [1:0] $end
$var wire 2 : REG_MUX_M [1:0] $end
$var wire 2 ; REG_MUX_E [1:0] $end
$var wire 2 < REG_MUX_D [1:0] $end
$var wire 1 = REG_EN_W $end
$var wire 1 > REG_EN_M $end
$var wire 1 ? REG_EN_E $end
$var wire 1 @ REG_EN_D $end
$var wire 32 A PCPlusImmE [31:0] $end
$var wire 32 B PCPlus4W [31:0] $end
$var wire 32 C PCPlus4M [31:0] $end
$var wire 32 D PCPlus4F [31:0] $end
$var wire 32 E PCPlus4E [31:0] $end
$var wire 32 F PCPlus4D [31:0] $end
$var wire 32 G PCMUX_OUT [31:0] $end
$var wire 1 H PCMUX $end
$var wire 32 I PCF [31:0] $end
$var wire 32 J PCE [31:0] $end
$var wire 32 K PCD [31:0] $end
$var wire 2 L NUM_BYTES_M [1:0] $end
$var wire 2 M NUM_BYTES_E [1:0] $end
$var wire 2 N NUM_BYTES_D [1:0] $end
$var wire 32 O MEMW [31:0] $end
$var wire 32 P MEMM [31:0] $end
$var wire 1 Q JUMP_E $end
$var wire 1 R JUMP_D $end
$var wire 1 S JALR_E $end
$var wire 1 T JALR_D $end
$var wire 32 U JALRMUX_OUT [31:0] $end
$var wire 32 V InstrW [31:0] $end
$var wire 32 W InstrMUX_OUT [31:0] $end
$var wire 1 X InstrMUX $end
$var wire 32 Y InstrM [31:0] $end
$var wire 32 Z InstrF [31:0] $end
$var wire 32 [ InstrE [31:0] $end
$var wire 32 \ InstrD [31:0] $end
$var wire 32 ] ImmW [31:0] $end
$var wire 32 ^ ImmM [31:0] $end
$var wire 32 _ ImmE [31:0] $end
$var wire 32 ` ImmD [31:0] $end
$var wire 32 a CTAddrE [31:0] $end
$var wire 1 b BR_EN_E $end
$var wire 1 c BR_EN_D $end
$var wire 4 d ALU_SEL_E [3:0] $end
$var wire 4 e ALU_SEL_D [3:0] $end
$var wire 32 f ALUW [31:0] $end
$var wire 32 g ALUMUX2_OUT [31:0] $end
$var wire 1 h ALUMUX2_E $end
$var wire 1 i ALUMUX2_D $end
$var wire 32 j ALUMUX1_OUT [31:0] $end
$var wire 1 k ALUMUX1_E $end
$var wire 1 l ALUMUX1_D $end
$var wire 32 m ALUM [31:0] $end
$var wire 32 n ALUE [31:0] $end
$upscope $end
$upscope $end
$enddefinitions $end
$comment Show the parameter values. $end
$dumpall
$end
#0
$dumpvars
bx n
bx m
xl
xk
bx j
xi
xh
bx g
bx f
bx e
bx d
xc
xb
bx a
bx `
bx _
bx ^
bx ]
bx \
bx [
bx Z
bx Y
xX
bx W
bx V
bx U
xT
xS
xR
xQ
bx P
bx O
bx N
bx M
bx L
bx K
bx J
bx I
xH
bx G
bx F
bx E
bx D
bx C
bx B
bx A
x@
x?
x>
x=
bx <
bx ;
bx :
bx 9
bx 8
bx 7
bx 6
bx 5
bx 4
bx 3
bx 2
bx 1
bx 0
x/
x.
x-
bx ,
bx +
x*
x)
x(
b100 '
b0 &
x%
bx $
bx #
1"
0!
$end
#5000
b0 N
0/
0*
0T
0c
0R
b0 e
0i
0l
b0 <
0@
b0 4
b0 8
b100 G
0%
b0 `
b0 U
b0 n
b0 a
b0 A
b0xxxxxxxx P
b0 g
b0 0
b0 1
b0 5
b0 6
b0 F
b0 \
b0 K
0b
0h
b0 j
0k
b0 d
0S
0Q
b0 M
0.
0)
0?
b0 ;
b0 [
b0 E
b0 3
b0 7
b0 _
b0 J
b0 L
0-
0(
0>
b0 +
b0 :
b0 Y
b0 C
b0 2
b0 m
b0 ^
0=
b0 ,
b0 9
b0 V
b0 B
b0 O
b0 f
b0 ]
b10110111 W
0X
0H
b10110111 Z
b100 D
b0 I
1!
#6000
0"
#10000
0!
#15000
b11 <
1@
b100110111 W
b100110111 Z
b1000 G
b1000 D
b0xxxxxxxx O
b100 F
b10110111 \
b100 I
1!
#20000
0!
#25000
b110110111 W
b110110111 Z
b1100 G
b1100 D
b1000 I
b1000 F
b100110111 \
b100 K
1?
b11 ;
b10110111 [
b100 E
1!
#30000
0!
#35000
b100 a
b100 A
b100 U
b100 n
b1000110111 W
b1000110111 Z
b10000 G
b10000 D
1>
b11 :
b10110111 Y
b0 +
b100 C
b100110111 [
b1000 E
b100 j
b100 J
b1100 F
b110110111 \
b1000 K
b1100 I
1!
#40000
0!
#45000
b1010110111 W
b1010110111 Z
b10100 G
b10100 D
b1000 a
b1000 A
b1000 U
b1000 n
b10000 I
b10000 F
b1000110111 \
b1100 K
b110110111 [
b1100 E
b1000 j
b1000 J
b100110111 Y
b1000 C
b100 m
1=
b11 9
b10110111 V
b0 ,
b100 B
1!
#50000
0!
#55000
b1100 a
b1100 A
b1100 U
b1100 n
b1100110111 W
b1100110111 Z
b11000 G
b11000 D
b100110111 V
b1000 B
b100 f
b110110111 Y
b1100 C
b1000 m
b1000110111 [
b10000 E
b1100 j
b1100 J
b10100 F
b1010110111 \
b10000 K
b10100 I
1!
#60000
0!
#65000
b1110110111 W
b1110110111 Z
b11100 G
b11100 D
b10000 a
b10000 A
b10000 U
b10000 n
b11000 I
b11000 F
b1100110111 \
b10100 K
b1010110111 [
b10100 E
b10000 j
b10000 J
b1000110111 Y
b10000 C
b1100 m
b110110111 V
b1100 B
b1000 f
1!
#70000
0!
#75000
b10100 a
b10100 A
b10100 U
b10100 n
b10000110111 W
b10000110111 Z
b100000 G
b100000 D
b1000110111 V
b10000 B
b1100 f
b1010110111 Y
b10100 C
b10000 m
b1100110111 [
b11000 E
b10100 j
b10100 J
b11100 F
b1110110111 \
b11000 K
b11100 I
1!
#80000
0!
#85000
b10010110111 W
b10010110111 Z
b100100 G
b100100 D
b11000 a
b11000 A
b11000 U
b11000 n
b100000 I
b100000 F
b10000110111 \
b11100 K
b1110110111 [
b11100 E
b11000 j
b11000 J
b1100110111 Y
b11000 C
b10100 m
b1010110111 V
b10100 B
b10000 f
1!
#90000
0!
#95000
b11100 a
b11100 A
b11100 U
b11100 n
b100001000000010010011 W
b100001000000010010011 Z
b101000 G
b101000 D
b1100110111 V
b11000 B
b10100 f
b1110110111 Y
b11100 C
b11000 m
b10000110111 [
b100000 E
b11100 j
b11100 J
b100100 F
b10010110111 \
b100000 K
b100100 I
1!
#100000
0!
#105000
1i
1l
b1 <
b1000010000000100010011 W
b1000010000000100010011 Z
b101100 G
b101100 D
b1 `
b100000 a
b100000 A
b100000 U
b100000 n
b101000 I
b101000 F
b100001000000010010011 \
b100100 K
b10010110111 [
b100100 E
b100000 j
b100000 J
b10000110111 Y
b100000 C
b11100 m
b1110110111 V
b11100 B
b11000 f
1!
#110000
0!
#115000
b100101 a
b100101 A
b1 U
b1 n
b10 `
b1100011000000110010011 W
b1100011000000110010011 Z
b110000 G
b110000 D
b10000110111 V
b100000 B
b11100 f
b10010110111 Y
b100100 C
b100000 m
b1 g
1h
1k
b1 ;
b100001000000010010011 [
b101000 E
b1 _
b0 j
b100100 J
b101100 F
b1000010000000100010011 \
b101000 K
b101100 I
1!
#120000
0!
#125000
b10011 W
b10011 Z
b110100 G
b110100 D
b11 `
b10 U
b10 n
b101010 a
b101010 A
b110000 I
b110000 F
b1100011000000110010011 \
b101100 K
b1000010000000100010011 [
b101100 E
b10 g
b10 _
b101000 J
b1 :
b100001000000010010011 Y
b101000 C
b1 m
b1 +
b1 ^
b10010110111 V
b100100 B
b100000 f
1!
#130000
0!
#135000
b11 U
b11 n
b101111 a
b101111 A
b0 `
b111000 G
b111000 D
b1 9
b100001000000010010011 V
b101000 B
b1 f
b1 ,
b1 ]
b1000010000000100010011 Y
b101100 C
b10 +
b10 m
b10 ^
b1100011000000110010011 [
b110000 E
b11 g
b11 _
b101100 J
b110100 F
b10011 \
b110000 K
b110100 I
1!
#140000
0!
#145000
b111100 G
b111100 D
b0 U
b0 n
b110000 a
b110000 A
b111000 I
b111000 F
b110100 K
b10011 [
b110100 E
b0 g
b0 _
b110000 J
b1100011000000110010011 Y
b110000 C
b11 +
b11 m
b11 ^
b1000010000000100010011 V
b101100 B
b10 ,
b10 f
b10 ]
1!
#150000
0!
#155000
b110100 a
b110100 A
b1000000 G
b1000000 D
b1100011000000110010011 V
b110000 B
b11 ,
b11 f
b11 ]
b10011 Y
b110100 C
b0 +
b0 m
b0 ^
b111000 E
b110100 J
b111100 F
b111000 K
b111100 I
1!
#160000
0!
#165000
b1000100 G
b1000100 D
b111000 a
b111000 A
b1000000 I
b1000000 F
b111100 K
b111100 E
b111000 J
b111000 C
b10011 V
b110100 B
b0 ,
b0 f
b0 ]
1!
#170000
0!
#175000
b111100 a
b111100 A
b1001000 G
b1001000 D
b111000 B
b111100 C
b1000000 E
b111100 J
b1000100 F
b1000000 K
b1000100 I
1!
#180000
0!
#185000
b1100001100001000010011 W
b1100001100001000010011 Z
b1001100 G
b1001100 D
b1000000 a
b1000000 A
b1001000 I
b1001000 F
b1000100 K
b1000100 E
b1000000 J
b1000000 C
b111100 B
1!
#190000
0!
#195000
b10 e
b11 4
b1 8
b1000100 a
b1000100 A
b11 `
b1100010110001010010011 W
b1100010110001010010011 Z
b1010000 G
b1010000 D
b1000000 B
b1000100 C
b1001000 E
b1000100 J
b1001100 F
b1100001100001000010011 \
b1001000 K
b1001100 I
1!
#200000
0!
#205000
b11 e
b10 8
b1000011111001100010011 W
b1000011111001100010011 Z
b1010100 G
b1010100 D
b11 `
b10 U
b10 n
b1001011 a
b1001011 A
b1010000 I
b1010000 F
b1100010110001010010011 \
b1001100 K
b10 d
b1100001100001000010011 [
b1001100 E
b11 0
b11 3
b1 j
b1 5
b1 7
b11 g
b11 _
b1001000 J
b1001000 C
b1000100 B
1!
#210000
0!
#215000
b100 e
b10 4
b11 8
b11 U
b11 n
b1001111 a
b1001111 A
b10 `
b100001001001110010011 W
b100001001001110010011 Z
b1011000 G
b1011000 D
b1001000 B
b1100001100001000010011 Y
b1001100 C
b11 2
b10 +
b10 m
b11 ^
b11 d
b1100010110001010010011 [
b1010000 E
b10 j
b10 5
b10 7
b1001100 J
b1010100 F
b1000011111001100010011 \
b1010000 K
b1010100 I
1!
#220000
0!
#225000
b101 e
b1 4
b1 8
b100010101010000010011 W
b100010101010000010011 Z
b1011100 G
b1011100 D
b1 `
b10 U
b10 n
b1010010 a
b1010010 A
b1011000 I
b1011000 F
b100001001001110010011 \
b1010100 K
b100 d
b1000011111001100010011 [
b1010100 E
b10 0
b10 3
b11 j
b11 5
b11 7
b10 g
b10 _
b1010000 J
b1100010110001010010011 Y
b1010000 C
b11 +
b11 m
b1100001100001000010011 V
b1001100 B
b10 ,
b10 f
b11 ]
1!
#230000
0!
#235000
b110 e
b10 8
b1010101 a
b1010101 A
b1 `
b1000000000100001101010010010011 W
b1000000000100001101010010010011 Z
b1100000 G
b1100000 D
b1100010110001010010011 V
b1010000 B
b11 ,
b11 f
b1000011111001100010011 Y
b1010100 C
b10 2
b10 +
b10 m
b10 ^
b101 d
b100001001001110010011 [
b1011000 E
b1 0
b1 3
b1 j
b1 5
b1 7
b1 g
b1 _
b1010100 J
b1011100 F
b100010101010000010011 \
b1011000 K
b1011100 I
1!
#240000
0!
#245000
b111 e
b1 8
b1000001010010100010011 W
b1000001010010100010011 Z
b1100100 G
b1100100 D
b10000000001 `
b1 U
b1 n
b1011001 a
b1011001 A
b1100000 I
b1100000 F
b1000000000100001101010010010011 \
b1011100 K
b110 d
b100010101010000010011 [
b1011100 E
b10 j
b10 5
b10 7
b1011000 J
b100001001001110010011 Y
b1011000 C
b1 2
b1 ^
b1000011111001100010011 V
b1010100 B
b10 ,
b10 f
b10 ]
1!
#250000
0!
#255000
b1000 e
b10 4
b0 U
b0 n
b10001011101 a
b10001011101 A
b10 `
b11111111011000001011010110010011 W
b11111111011000001011010110010011 Z
b1101000 G
b1101000 D
b100001001001110010011 V
b1011000 B
b1 ]
b100010101010000010011 Y
b1011100 C
b1 +
b1 m
b111 d
b1000000000100001101010010010011 [
b1100000 E
b1 j
b1 5
b1 7
b10000000001 g
b10000000001 _
b1011100 J
b1100100 F
b1000001010010100010011 \
b1100000 K
b1100100 I
1!
#260000
0!
#265000
b1001 e
bx 4
bx W
bx Z
b1101100 G
b1101100 D
b11111111111111111111111111110110 `
b1 U
b1 n
b1100010 a
b1100010 A
b1101000 I
b1101000 F
b11111111011000001011010110010011 \
b1100100 K
b1000 d
b1000001010010100010011 [
b1100100 E
b10 0
b10 3
b10 g
b10 _
b1100000 J
b1000000000100001101010010010011 Y
b1100000 C
b0 +
b0 m
b10000000001 ^
b100010101010000010011 V
b1011100 B
b1 ,
b1 f
1!
#270000
0!
#275000
b0 e
0i
0l
b0 <
0@
bx 8
b1011010 a
b1011010 A
b0 `
b1110000 G
b1110000 D
b1000000000100001101010010010011 V
b1100000 B
b0 ,
b0 f
b10000000001 ]
b1000001010010100010011 Y
b1100100 C
b10 2
b1 +
b1 m
b10 ^
b1001 d
b11111111011000001011010110010011 [
b1101000 E
bx 0
bx 3
b11111111111111111111111111110110 g
b11111111111111111111111111110110 _
b1100100 J
b1101100 F
bx \
b1101000 K
b1101100 I
1!
#280000
0!
#285000
b1110100 G
b1110100 D
bx U
bx n
b1101000 a
b1101000 A
b1110000 I
b1110000 F
b1101100 K
0h
0k
b0 d
0?
b0 ;
bx [
b1101100 E
b1101000 j
bx 5
bx 7
bx g
b0 _
b1101000 J
b11111111011000001011010110010011 Y
b1101000 C
bx 2
b11111111111111111111111111110110 ^
b1000001010010100010011 V
b1100100 B
b1 ,
b1 f
b10 ]
1!
#290000
0!
#295000
b1101100 a
b1101100 A
b1111000 G
b1111000 D
b11111111011000001011010110010011 V
b1101000 B
b11111111111111111111111111110110 ]
0>
b0 :
bx Y
b1101100 C
b1101100 +
bx m
b0 ^
b1110000 E
b1101100 j
b1101100 J
b1110100 F
b1110000 K
b1110100 I
1!
#300000
0!
#305000
b1111100 G
b1111100 D
b1110000 a
b1110000 A
b1111000 I
b1111000 F
b1110100 K
b1110100 E
b1110000 j
b1110000 J
b1110000 +
b1110000 C
0=
b0 9
bx V
b1101100 B
b1101100 ,
bx f
b0 ]
1!
#310000
0!
#315000
b1110100 a
b1110100 A
b10000000 G
b10000000 D
b1110000 ,
b1110000 B
b1110100 +
b1110100 C
b1111000 E
b1110100 j
b1110100 J
b1111100 F
b1111000 K
b1111100 I
1!
#320000
0!
#325000
b10000100 G
b10000100 D
b1111000 a
b1111000 A
b10000000 I
b10000000 F
b1111100 K
b1111100 E
b1111000 j
b1111000 J
b1111000 +
b1111000 C
b1110100 ,
b1110100 B
1!
#330000
0!
#335000
b1111100 a
b1111100 A
b10001000 G
b10001000 D
b1111000 ,
b1111000 B
b1111100 +
b1111100 C
b10000000 E
b1111100 j
b1111100 J
b10000100 F
b10000000 K
b10000100 I
1!
#340000
0!
#345000
b10001100 G
b10001100 D
b10000000 a
b10000000 A
b10001000 I
b10001000 F
b10000100 K
b10000100 E
b10000000 j
b10000000 J
b10000000 +
b10000000 C
b1111100 ,
b1111100 B
1!
#350000
0!
#355000
b10000100 a
b10000100 A
b10010000 G
b10010000 D
b10000000 ,
b10000000 B
b10000100 +
b10000100 C
b10001000 E
b10000100 j
b10000100 J
b10001100 F
b10001000 K
b10001100 I
1!
#360000
0!
#365000
b10010100 G
b10010100 D
b10001000 a
b10001000 A
b10010000 I
b10010000 F
b10001100 K
b10001100 E
b10001000 j
b10001000 J
b10001000 +
b10001000 C
b10000100 ,
b10000100 B
1!
#370000
0!
#375000
b10001100 a
b10001100 A
b10011000 G
b10011000 D
b10001000 ,
b10001000 B
b10001100 +
b10001100 C
b10010000 E
b10001100 j
b10001100 J
b10010100 F
b10010000 K
b10010100 I
1!
#380000
0!
#385000
b10011100 G
b10011100 D
b10010000 a
b10010000 A
b10011000 I
b10011000 F
b10010100 K
b10010100 E
b10010000 j
b10010000 J
b10010000 +
b10010000 C
b10001100 ,
b10001100 B
1!
#390000
0!
#395000
b10010100 a
b10010100 A
b10100000 G
b10100000 D
b10010000 ,
b10010000 B
b10010100 +
b10010100 C
b10011000 E
b10010100 j
b10010100 J
b10011100 F
b10011000 K
b10011100 I
1!
#400000
0!
#405000
b10100100 G
b10100100 D
b10011000 a
b10011000 A
b10100000 I
b10100000 F
b10011100 K
b10011100 E
b10011000 j
b10011000 J
b10011000 +
b10011000 C
b10010100 ,
b10010100 B
1!
#410000
0!
#415000
b10011100 a
b10011100 A
b10101000 G
b10101000 D
b10011000 ,
b10011000 B
b10011100 +
b10011100 C
b10100000 E
b10011100 j
b10011100 J
b10100100 F
b10100000 K
b10100100 I
1!
#420000
0!
#425000
b10101100 G
b10101100 D
b10100000 a
b10100000 A
b10101000 I
b10101000 F
b10100100 K
b10100100 E
b10100000 j
b10100000 J
b10100000 +
b10100000 C
b10011100 ,
b10011100 B
1!
#430000
0!
#435000
b10100100 a
b10100100 A
b10110000 G
b10110000 D
b10100000 ,
b10100000 B
b10100100 +
b10100100 C
b10101000 E
b10100100 j
b10100100 J
b10101100 F
b10101000 K
b10101100 I
1!
#440000
0!
#445000
b10110100 G
b10110100 D
b10101000 a
b10101000 A
b10110000 I
b10110000 F
b10101100 K
b10101100 E
b10101000 j
b10101000 J
b10101000 +
b10101000 C
b10100100 ,
b10100100 B
1!
#450000
0!
#455000
b10101100 a
b10101100 A
b10111000 G
b10111000 D
b10101000 ,
b10101000 B
b10101100 +
b10101100 C
b10110000 E
b10101100 j
b10101100 J
b10110100 F
b10110000 K
b10110100 I
1!
#460000
0!
#465000
b10111100 G
b10111100 D
b10110000 a
b10110000 A
b10111000 I
b10111000 F
b10110100 K
b10110100 E
b10110000 j
b10110000 J
b10110000 +
b10110000 C
b10101100 ,
b10101100 B
1!
#470000
0!
#475000
b10110100 a
b10110100 A
b11000000 G
b11000000 D
b10110000 ,
b10110000 B
b10110100 +
b10110100 C
b10111000 E
b10110100 j
b10110100 J
b10111100 F
b10111000 K
b10111100 I
1!
#480000
0!
#485000
b11000100 G
b11000100 D
b10111000 a
b10111000 A
b11000000 I
b11000000 F
b10111100 K
b10111100 E
b10111000 j
b10111000 J
b10111000 +
b10111000 C
b10110100 ,
b10110100 B
1!
#490000
0!
#495000
b10111100 a
b10111100 A
b11001000 G
b11001000 D
b10111000 ,
b10111000 B
b10111100 +
b10111100 C
b11000000 E
b10111100 j
b10111100 J
b11000100 F
b11000000 K
b11000100 I
1!
#500000
0!
#505000
b11001100 G
b11001100 D
b11000000 a
b11000000 A
b11001000 I
b11001000 F
b11000100 K
b11000100 E
b11000000 j
b11000000 J
b11000000 +
b11000000 C
b10111100 ,
b10111100 B
1!
#510000
0!
#515000
b11000100 a
b11000100 A
b11010000 G
b11010000 D
b11000000 ,
b11000000 B
b11000100 +
b11000100 C
b11001000 E
b11000100 j
b11000100 J
b11001100 F
b11001000 K
b11001100 I
1!
#520000
0!
#525000
b11010100 G
b11010100 D
b11001000 a
b11001000 A
b11010000 I
b11010000 F
b11001100 K
b11001100 E
b11001000 j
b11001000 J
b11001000 +
b11001000 C
b11000100 ,
b11000100 B
1!
#530000
0!
#535000
b11001100 a
b11001100 A
b11011000 G
b11011000 D
b11001000 ,
b11001000 B
b11001100 +
b11001100 C
b11010000 E
b11001100 j
b11001100 J
b11010100 F
b11010000 K
b11010100 I
1!
#540000
0!
#545000
b11011100 G
b11011100 D
b11010000 a
b11010000 A
b11011000 I
b11011000 F
b11010100 K
b11010100 E
b11010000 j
b11010000 J
b11010000 +
b11010000 C
b11001100 ,
b11001100 B
1!
#550000
0!
#555000
b11010100 a
b11010100 A
b11100000 G
b11100000 D
b11010000 ,
b11010000 B
b11010100 +
b11010100 C
b11011000 E
b11010100 j
b11010100 J
b11011100 F
b11011000 K
b11011100 I
1!
#560000
0!
#565000
b11100100 G
b11100100 D
b11011000 a
b11011000 A
b11100000 I
b11100000 F
b11011100 K
b11011100 E
b11011000 j
b11011000 J
b11011000 +
b11011000 C
b11010100 ,
b11010100 B
1!
#570000
0!
#575000
b11011100 a
b11011100 A
b11101000 G
b11101000 D
b11011000 ,
b11011000 B
b11011100 +
b11011100 C
b11100000 E
b11011100 j
b11011100 J
b11100100 F
b11100000 K
b11100100 I
1!
#580000
0!
#585000
b11101100 G
b11101100 D
b11100000 a
b11100000 A
b11101000 I
b11101000 F
b11100100 K
b11100100 E
b11100000 j
b11100000 J
b11100000 +
b11100000 C
b11011100 ,
b11011100 B
1!
#590000
0!
#595000
b11100100 a
b11100100 A
b11110000 G
b11110000 D
b11100000 ,
b11100000 B
b11100100 +
b11100100 C
b11101000 E
b11100100 j
b11100100 J
b11101100 F
b11101000 K
b11101100 I
1!
#600000
0!
#605000
b11110100 G
b11110100 D
b11101000 a
b11101000 A
b11110000 I
b11110000 F
b11101100 K
b11101100 E
b11101000 j
b11101000 J
b11101000 +
b11101000 C
b11100100 ,
b11100100 B
1!
#610000
0!
#615000
b11101100 a
b11101100 A
b11111000 G
b11111000 D
b11101000 ,
b11101000 B
b11101100 +
b11101100 C
b11110000 E
b11101100 j
b11101100 J
b11110100 F
b11110000 K
b11110100 I
1!
#620000
0!
#625000
b11111100 G
b11111100 D
b11110000 a
b11110000 A
b11111000 I
b11111000 F
b11110100 K
b11110100 E
b11110000 j
b11110000 J
b11110000 +
b11110000 C
b11101100 ,
b11101100 B
1!
#630000
0!
#635000
b11110100 a
b11110100 A
b100000000 G
b100000000 D
b11110000 ,
b11110000 B
b11110100 +
b11110100 C
b11111000 E
b11110100 j
b11110100 J
b11111100 F
b11111000 K
b11111100 I
1!
#640000
0!
#645000
bx10110111 W
bx10110111 Z
b100000100 G
b100000100 D
b11111000 a
b11111000 A
b100000000 I
b100000000 F
b11111100 K
b11111100 E
b11111000 j
b11111000 J
b11111000 +
b11111000 C
b11110100 ,
b11110100 B
1!
#650000
0!
#655000
b11 <
1@
b11111100 a
b11111100 A
bx000000000000 `
bx00110111 W
bx00110111 Z
b100001000 G
b100001000 D
b11111000 ,
b11111000 B
b11111100 +
b11111100 C
b100000000 E
b11111100 j
b11111100 J
b100000100 F
bx10110111 \
b100000000 K
b100000100 I
1!
#660000
0!
#665000
bx10110111 W
bx10110111 Z
b100001100 G
b100001100 D
bx000000000000 `
bx a
bx A
b100001000 I
b100001000 F
bx00110111 \
b100000100 K
1?
b11 ;
bx10110111 [
b100000100 E
bx000000000000 _
b100000000 j
b100000000 J
b100000000 +
b100000000 C
b11111100 ,
b11111100 B
1!
#670000
0!
#675000
bx000000000000 `
bx00110111 W
bx00110111 Z
b100010000 G
b100010000 D
b100000000 ,
b100000000 B
1>
b11 :
bx10110111 Y
bx000000000000 +
b100000100 C
bx000000000000 ^
bx00110111 [
b100001000 E
b100000100 j
b100000100 J
b100001100 F
bx10110111 \
b100001000 K
b100001100 I
1!
#680000
0!
#685000
bx10110111 W
bx10110111 Z
b100010100 G
b100010100 D
bx000000000000 `
b100010000 I
b100010000 F
bx00110111 \
b100001100 K
bx10110111 [
b100001100 E
b100001000 j
b100001000 J
bx00110111 Y
b100001000 C
1=
b11 9
bx10110111 V
bx000000000000 ,
b100000100 B
bx000000000000 ]
1!
#690000
0!
#695000
bx000000000000 `
bx00110111 W
bx00110111 Z
b100011000 G
b100011000 D
bx00110111 V
b100001000 B
bx10110111 Y
b100001100 C
bx00110111 [
b100010000 E
b100001100 j
b100001100 J
b100010100 F
bx10110111 \
b100010000 K
b100010100 I
1!
#700000
0!
#705000
bx10110111 W
bx10110111 Z
b100011100 G
b100011100 D
bx000000000000 `
b100011000 I
b100011000 F
bx00110111 \
b100010100 K
bx10110111 [
b100010100 E
b100010000 j
b100010000 J
bx00110111 Y
b100010000 C
bx10110111 V
b100001100 B
1!
#710000
0!
#715000
bx000000000000 `
bx00110111 W
bx00110111 Z
b100100000 G
b100100000 D
bx00110111 V
b100010000 B
bx10110111 Y
b100010100 C
bx00110111 [
b100011000 E
b100010100 j
b100010100 J
b100011100 F
bx10110111 \
b100011000 K
b100011100 I
1!
#720000
0!
#725000
bx10110111 W
bx10110111 Z
b100100100 G
b100100100 D
bx000000000000 `
b100100000 I
b100100000 F
bx00110111 \
b100011100 K
bx10110111 [
b100011100 E
b100011000 j
b100011000 J
bx00110111 Y
b100011000 C
bx10110111 V
b100010100 B
1!
#730000
0!
#735000
bx000000000000 `
bx10010011 W
bx10010011 Z
b100101000 G
b100101000 D
bx00110111 V
b100011000 B
bx10110111 Y
b100011100 C
bx00110111 [
b100100000 E
b100011100 j
b100011100 J
b100100100 F
bx10110111 \
b100100000 K
b100100100 I
1!
#740000
0!
#745000
1i
1l
b1 <
bx00010011 W
bx00010011 Z
b100101100 G
b100101100 D
bx `
b100101000 I
b100101000 F
bx10010011 \
b100100100 K
bx10110111 [
b100100100 E
b100100000 j
b100100000 J
bx00110111 Y
b100100000 C
bx10110111 V
b100011100 B
1!
#750000
0!
#755000
bx `
bx10010011 W
bx10010011 Z
b100110000 G
b100110000 D
bx00110111 V
b100100000 B
bx10110111 Y
b100100100 C
1h
1k
b1 ;
bx10010011 [
b100101000 E
bx _
bx j
b100100100 J
b100101100 F
bx00010011 \
b100101000 K
b100101100 I
1!
#760000
0!
#765000
bx00010011 W
bx00010011 Z
b100110100 G
b100110100 D
bx `
b100110000 I
b100110000 F
bx10010011 \
b100101100 K
bx00010011 [
b100101100 E
b100101000 J
b1 :
bx10010011 Y
b100101000 C
bx +
bx ^
bx10110111 V
b100100100 B
1!
#770000
0!
#775000
bx `
b100111000 G
b100111000 D
b1 9
bx10010011 V
b100101000 B
bx ,
bx ]
bx00010011 Y
b100101100 C
bx10010011 [
b100110000 E
b100101100 J
b100110100 F
bx00010011 \
b100110000 K
b100110100 I
1!
#780000
0!
#785000
b100111100 G
b100111100 D
b100111000 I
b100111000 F
b100110100 K
bx00010011 [
b100110100 E
b100110000 J
bx10010011 Y
b100110000 C
bx00010011 V
b100101100 B
1!
#790000
0!
#795000
b101000000 G
b101000000 D
bx10010011 V
b100110000 B
bx00010011 Y
b100110100 C
b100111000 E
b100110100 J
b100111100 F
b100111000 K
b100111100 I
1!
#800000
0!
#805000
b101000100 G
b101000100 D
b101000000 I
b101000000 F
b100111100 K
b100111100 E
b100111000 J
b100111000 C
bx00010011 V
b100110100 B
1!
#810000
0!
#815000
b101001000 G
b101001000 D
b100111000 B
b100111100 C
b101000000 E
b100111100 J
b101000100 F
b101000000 K
b101000100 I
1!
#820000
0!
#825000
b101001100 G
b101001100 D
b101001000 I
b101001000 F
b101000100 K
b101000100 E
b101000000 J
b101000000 C
b100111100 B
1!
#830000
0!
#835000
bx10010011 W
bx10010011 Z
b101010000 G
b101010000 D
b101000000 B
b101000100 C
b101001000 E
b101000100 J
b101001100 F
b101001000 K
b101001100 I
1!
#840000
0!
#845000
bx00010011 W
bx00010011 Z
b101010100 G
b101010100 D
bx `
b101010000 I
b101010000 F
bx10010011 \
b101001100 K
b101001100 E
b101001000 J
b101001000 C
b101000100 B
1!
#850000
0!
#855000
bx `
bx10010011 W
bx10010011 Z
b101011000 G
b101011000 D
b101001000 B
b101001100 C
bx10010011 [
b101010000 E
b101001100 J
b101010100 F
bx00010011 \
b101010000 K
b101010100 I
1!
#860000
0!
#865000
bx00010011 W
bx00010011 Z
b101011100 G
b101011100 D
bx `
b101011000 I
b101011000 F
bx10010011 \
b101010100 K
bx00010011 [
b101010100 E
b101010000 J
bx10010011 Y
b101010000 C
b101001100 B
1!
#870000
0!
#875000
bx `
bx10010011 W
bx10010011 Z
b101100000 G
b101100000 D
bx10010011 V
b101010000 B
bx00010011 Y
b101010100 C
bx10010011 [
b101011000 E
b101010100 J
b101011100 F
bx00010011 \
b101011000 K
b101011100 I
1!
#880000
0!
#885000
bx00010011 W
bx00010011 Z
b101100100 G
b101100100 D
bx `
b101100000 I
b101100000 F
bx10010011 \
b101011100 K
bx00010011 [
b101011100 E
b101011000 J
bx10010011 Y
b101011000 C
bx00010011 V
b101010100 B
1!
#890000
0!
#895000
bx `
bx10010011 W
bx10010011 Z
b101101000 G
b101101000 D
bx10010011 V
b101011000 B
bx00010011 Y
b101011100 C
bx10010011 [
b101100000 E
b101011100 J
b101100100 F
bx00010011 \
b101100000 K
b101100100 I
1!
#900000
0!
#905000
bx W
bx Z
b101101100 G
b101101100 D
bx `
b101101000 I
b101101000 F
bx10010011 \
b101100100 K
bx00010011 [
b101100100 E
b101100000 J
bx10010011 Y
b101100000 C
bx00010011 V
b101011100 B
1!
#910000
0!
