sim/h_reg_op.vcd
$date
	Sun Jun 21 01:50:49 2026
$end
$version
	Icarus Verilog
$end
$timescale
	1ps
$end
$scope module H_RegOp $end
$scope module test_cpu $end
$var wire 1 ! FLUSH_E $end
$var wire 32 " NOP [31:0] $end
$var wire 32 # WIRED4_F [31:0] $end
$var wire 1 $ clk $end
$var wire 1 % reset $end
$var wire 1 & WE_M $end
$var wire 1 ' WE_E $end
$var wire 1 ( WE_D $end
$var wire 32 ) WBMEMMUX_OUT [31:0] $end
$var wire 32 * WBDataW [31:0] $end
$var wire 1 + SZ_M $end
$var wire 1 , SZ_E $end
$var wire 1 - SZ_D $end
$var wire 32 . RS2MUX_OUT [31:0] $end
$var wire 2 / RS2MUX [1:0] $end
$var wire 32 0 RS2M [31:0] $end
$var wire 32 1 RS2E [31:0] $end
$var wire 32 2 RS2D [31:0] $end
$var wire 32 3 RS1MUX_OUT [31:0] $end
$var wire 2 4 RS1MUX [1:0] $end
$var wire 32 5 RS1E [31:0] $end
$var wire 32 6 RS1D [31:0] $end
$var wire 2 7 REG_MUX_W [1:0] $end
$var wire 2 8 REG_MUX_M [1:0] $end
$var wire 2 9 REG_MUX_E [1:0] $end
$var wire 2 : REG_MUX_D [1:0] $end
$var wire 1 ; REG_EN_W $end
$var wire 1 < REG_EN_M $end
$var wire 1 = REG_EN_E $end
$var wire 1 > REG_EN_D $end
$var wire 32 ? PCPlusImmE [31:0] $end
$var wire 32 @ PCPlus4W [31:0] $end
$var wire 32 A PCPlus4M [31:0] $end
$var wire 32 B PCPlus4F [31:0] $end
$var wire 32 C PCPlus4E [31:0] $end
$var wire 32 D PCPlus4D [31:0] $end
$var wire 32 E PCMUX_OUT [31:0] $end
$var wire 1 F PCMUX $end
$var wire 32 G PCF [31:0] $end
$var wire 32 H PCE [31:0] $end
$var wire 32 I PCD [31:0] $end
$var wire 2 J NUM_BYTES_M [1:0] $end
$var wire 2 K NUM_BYTES_E [1:0] $end
$var wire 2 L NUM_BYTES_D [1:0] $end
$var wire 32 M MEMW [31:0] $end
$var wire 32 N MEMM [31:0] $end
$var wire 1 O JUMP_E $end
$var wire 1 P JUMP_D $end
$var wire 1 Q JALR_E $end
$var wire 1 R JALR_D $end
$var wire 32 S JALRMUX_OUT [31:0] $end
$var wire 32 T InstrW [31:0] $end
$var wire 32 U InstrMUX_OUT [31:0] $end
$var wire 1 V InstrMUX $end
$var wire 32 W InstrM [31:0] $end
$var wire 32 X InstrF [31:0] $end
$var wire 32 Y InstrE [31:0] $end
$var wire 32 Z InstrD [31:0] $end
$var wire 32 [ ImmW [31:0] $end
$var wire 32 \ ImmM [31:0] $end
$var wire 32 ] ImmE [31:0] $end
$var wire 32 ^ ImmD [31:0] $end
$var wire 32 _ CTAddrE [31:0] $end
$var wire 1 ` BR_EN_E $end
$var wire 1 a BR_EN_D $end
$var wire 4 b ALU_SEL_E [3:0] $end
$var wire 4 c ALU_SEL_D [3:0] $end
$var wire 32 d ALUW [31:0] $end
$var wire 32 e ALUMUX2_OUT [31:0] $end
$var wire 1 f ALUMUX2_E $end
$var wire 1 g ALUMUX2_D $end
$var wire 32 h ALUMUX1_OUT [31:0] $end
$var wire 1 i ALUMUX1_E $end
$var wire 1 j ALUMUX1_D $end
$var wire 32 k ALUM [31:0] $end
$var wire 32 l ALUE [31:0] $end
$upscope $end
$upscope $end
$scope module H_RegOp $end
$var reg 1 $ clk $end
$var reg 1 % reset $end
$var integer 32 m errors [31:0] $end
$var integer 32 n i [31:0] $end
$upscope $end
$enddefinitions $end
$comment Show the parameter values. $end
$dumpall
$end
#0
$dumpvars
bx n
bx m
bx l
bx k
xj
xi
bx h
xg
xf
bx e
bx d
bx c
bx b
xa
x`
bx _
bx ^
bx ]
bx \
bx [
bx Z
bx Y
bx X
bx W
xV
bx U
bx T
bx S
xR
xQ
xP
xO
bx N
bx M
bx L
bx K
bx J
bx I
bx H
bx G
xF
bx E
bx D
bx C
bx B
bx A
bx @
bx ?
x>
x=
x<
x;
bx :
bx 9
bx 8
bx 7
bx 6
bx 5
bx 4
bx 3
bx 2
bx 1
bx 0
bx /
bx .
x-
x,
x+
bx *
bx )
x(
x'
x&
1%
0$
b100 #
b0 "
x!
$end
#5000
b0 L
0-
0(
0R
0a
0P
b0 c
0g
0j
b0 :
0>
b0 2
b0 6
b100 E
0!
b0 ^
b0 S
b0 l
b0 _
b0 ?
b0xxxxxxxx N
b0 e
b0 .
b0 /
b0 3
b0 4
b0 D
b0 Z
b0 I
0`
0f
b0 h
0i
b0 b
0Q
0O
b0 K
0,
0'
0=
b0 9
b0 Y
b0 C
b0 1
b0 5
b0 ]
b0 H
b0 J
0+
0&
0<
b0 )
b0 8
b0 W
b0 A
b0 0
b0 k
b0 \
0;
b0 *
b0 7
b0 T
b0 @
b0 M
b0 d
b0 [
b10001000100010001000000110111 U
0V
0F
b10001000100010001000000110111 X
b100 B
b0 G
1$
#6000
0%
#10000
0$
#15000
b11 :
1>
bx 2
bx 6
b10001000100010001000000000000 ^
b1000010110111 U
b1000010110111 X
b1000 E
b1000 B
b0xxxxxxxx M
b100 D
b10001000100010001000000110111 Z
b100 G
1$
#20000
0$
#25000
b0 2
b0 6
b10000100110111 U
b10000100110111 X
b1100 E
b1100 B
b1000000000000 ^
bx S
bx l
b10001000100010001000000000000 _
b10001000100010001000000000000 ?
b1000 G
b1000 D
b1000010110111 Z
b100 I
1=
b11 9
b10001000100010001000000110111 Y
b100 C
bx e
bx .
bx 1
bx 3
bx 5
b10001000100010001000000000000 ]
1$
#30000
0$
#35000
b1000000000100 _
b1000000000100 ?
b100 S
b100 l
b10000000000000 ^
b11000110110111 U
b11000110110111 X
b10000 E
b10000 B
1<
b11 8
b10001000100010001000000110111 W
b10001000100010001000000000000 )
b100 A
bx 0
bx k
b10001000100010001000000000000 \
b1000010110111 Y
b1000 C
b0 e
b0 .
b0 1
b0 3
b0 5
b1000000000000 ]
b100 h
b100 H
b1100 D
b10000100110111 Z
b1000 I
b1100 G
1$
#40000
0$
#45000
b100001000110111 U
b100001000110111 X
b10100 E
b10100 B
b11000000000000 ^
b10000000001000 _
b10000000001000 ?
b1000 S
b1000 l
b10000 G
b10000 D
b11000110110111 Z
b1100 I
b10000100110111 Y
b1100 C
b10000000000000 ]
b1000 h
b1000 H
b1000010110111 W
b1000 A
b0 0
b100 k
b1000000000000 )
b1000000000000 \
1;
b11 7
b10001000100010001000000110111 T
b10001000100010001000000000000 *
b100 @
bx d
b10001000100010001000000000000 [
1$
#50000
0$
#55000
b11000000001100 _
b11000000001100 ?
b1100 S
b1100 l
b100000000000000 ^
b101001010110111 U
b101001010110111 X
b11000 E
b11000 B
b1000010110111 T
b1000 @
b100 d
b1000000000000 *
b1000000000000 [
b10000100110111 W
b1100 A
b1000 k
b10000000000000 )
b10000000000000 \
b11000110110111 Y
b10000 C
b11000000000000 ]
b1100 h
b1100 H
b10100 D
b100001000110111 Z
b10000 I
b10100 G
1$
#60000
0$
#65000
b110001100110111 U
b110001100110111 X
b11100 E
b11100 B
b101000000000000 ^
b100000000010000 _
b100000000010000 ?
b10000 S
b10000 l
b11000 G
b11000 D
b101001010110111 Z
b10100 I
b100001000110111 Y
b10100 C
b100000000000000 ]
b10000 h
b10000 H
b11000110110111 W
b10000 A
b1100 k
b11000000000000 )
b11000000000000 \
b10000100110111 T
b1100 @
b1000 d
b10000000000000 *
b10000000000000 [
1$
#70000
0$
#75000
b101000000010100 _
b101000000010100 ?
b10100 S
b10100 l
b110000000000000 ^
b111001110110111 U
b111001110110111 X
b100000 E
b100000 B
b11000110110111 T
b10000 @
b1100 d
b11000000000000 *
b11000000000000 [
b100001000110111 W
b10100 A
b10000 k
b100000000000000 )
b100000000000000 \
b101001010110111 Y
b11000 C
b101000000000000 ]
b10100 h
b10100 H
b11100 D
b110001100110111 Z
b11000 I
b11100 G
1$
#80000
0$
#85000
b1000010000110111 U
b1000010000110111 X
b100100 E
b100100 B
b111000000000000 ^
b110000000011000 _
b110000000011000 ?
b11000 S
b11000 l
b100000 G
b100000 D
b111001110110111 Z
b11100 I
b110001100110111 Y
b11100 C
b110000000000000 ]
b11000 h
b11000 H
b101001010110111 W
b11000 A
b10100 k
b101000000000000 )
b101000000000000 \
b100001000110111 T
b10100 @
b10000 d
b100000000000000 *
b100000000000000 [
1$
#90000
0$
#95000
b1000000000000 6
b111000000011100 _
b111000000011100 ?
b11100 S
b11100 l
b1000000000000000 ^
b1001010010110111 U
b1001010010110111 X
b101000 E
b101000 B
b101001010110111 T
b11000 @
b10100 d
b101000000000000 *
b101000000000000 [
b110001100110111 W
b11100 A
b11000 k
b110000000000000 )
b110000000000000 \
b111001110110111 Y
b100000 C
b111000000000000 ]
b11100 h
b11100 H
b100100 D
b1000010000110111 Z
b100000 I
b100100 G
1$
#100000
0$
#105000
b100001000000010010011 U
b100001000000010010011 X
b101100 E
b101100 B
b1001000000000000 ^
b1000000000100000 _
b1000000000100000 ?
b100000 S
b100000 l
b101000 G
b101000 D
b1001010010110111 Z
b100100 I
b1000010000110111 Y
b100100 C
b1000000000000 3
b1000000000000 5
b1000000000000000 ]
b100000 h
b100000 H
b111001110110111 W
b100000 A
b11100 k
b111000000000000 )
b111000000000000 \
b110001100110111 T
b11100 @
b11000 d
b110000000000000 *
b110000000000000 [
1$
#110000
0$
#115000
1g
1j
b1 :
b1000000000000 2
b1001000000100100 _
b1001000000100100 ?
b100100 S
b100100 l
b1 ^
b10011 U
b10011 X
b110000 E
b110000 B
b111001110110111 T
b100000 @
b11100 d
b111000000000000 *
b111000000000000 [
b1000010000110111 W
b100100 A
b100000 k
b1000000000000000 )
b1000000000000000 \
b1001010010110111 Y
b101000 C
b1001000000000000 ]
b100100 h
b100100 H
b101100 D
b100001000000010010011 Z
b101000 I
b101100 G
1$
#120000
0$
#125000
b0 2
b0 6
b110100 E
b110100 B
b0 ^
b101001 _
b101001 ?
b1000000000001 S
b1000000000001 l
b110000 G
b110000 D
b10011 Z
b101100 I
1f
1i
b1 9
b100001000000010010011 Y
b101100 C
b1 e
b1000000000000 .
b1000000000000 1
b1 ]
b1000000000000 h
b101000 H
b1001010010110111 W
b101000 A
b100100 k
b1001000000000000 )
b1001000000000000 \
b1000010000110111 T
b100100 @
b100000 d
b1000000000000000 *
b1000000000000000 [
1$
#130000
0$
#135000
b0 S
b0 l
b101100 _
b101100 ?
b111000 E
b111000 B
b1001010010110111 T
b101000 @
b100100 d
b1001000000000000 *
b1001000000000000 [
b1 8
b100001000000010010011 W
b101100 A
b1000000000000 0
b1000000000001 k
b1000000000001 )
b1 \
b10011 Y
b110000 C
b0 .
b0 1
b0 h
b0 3
b0 5
b0 e
b0 ]
b101100 H
b110100 D
b110000 I
b110100 G
1$
#140000
0$
#145000
b111100 E
b111100 B
b110000 _
b110000 ?
b111000 G
b111000 D
b110100 I
b110100 C
b110000 H
b10011 W
b110000 A
b0 0
b0 )
b0 k
b0 \
b1 7
b100001000000010010011 T
b101100 @
b1000000000001 d
b1000000000001 *
b1 [
1$
#150000
0$
#155000
b110100 _
b110100 ?
b1000000 E
b1000000 B
b10011 T
b110000 @
b0 *
b0 d
b0 [
b110100 A
b111000 C
b110100 H
b111100 D
b111000 I
b111100 G
1$
#160000
0$
#165000
b1000100 E
b1000100 B
b111000 _
b111000 ?
b1000000 G
b1000000 D
b111100 I
b111100 C
b111000 H
b111000 A
b110100 @
1$
#170000
0$
#175000
b111100 _
b111100 ?
b1001000 E
b1001000 B
b111000 @
b111100 A
b1000000 C
b111100 H
b1000100 D
b1000000 I
b1000100 G
1$
#180000
0$
#185000
b100000000010100110011 U
b100000000010100110011 X
b1001100 E
b1001100 B
b1000000 _
b1000000 ?
b1001000 G
b1001000 D
b1000100 I
b1000100 C
b1000000 H
b1000000 A
b111100 @
1$
#190000
0$
#195000
0g
b1000000000001 2
b1000100 _
b1000100 ?
b1000000000100000000010110110011 U
b1000000000100000000010110110011 X
b1010000 E
b1010000 B
b1000000 @
b1000100 A
b1001000 C
b1000100 H
b1001100 D
b100000000010100110011 Z
b1001000 I
b1001100 G
1$
#200000
0$
#205000
b1 c
b100000100011000110011 U
b100000100011000110011 X
b1010100 E
b1010100 B
b1000000000001 S
b1000000000001 l
b1001000 _
b1001000 ?
b1010000 G
b1010000 D
b1000000000100000000010110110011 Z
b1001100 I
b1000000000001 e
0f
b100000000010100110011 Y
b1001100 C
b1000000000001 .
b1000000000001 1
b1001000 H
b1001000 A
b1000100 @
1$
#210000
0$
#215000
b10 c
b11111111111111111110111111111111 S
b11111111111111111110111111111111 l
b1001100 _
b1001100 ?
b100100001110011100110011 U
b100100001110011100110011 X
b1011000 E
b1011000 B
b1001000 @
b100000000010100110011 W
b1001100 A
b1000000000001 0
b1000000000001 )
b1000000000001 k
b1 b
b1000000000100000000010110110011 Y
b1010000 C
b1001100 H
b1010100 D
b100000100011000110011 Z
b1010000 I
b1010100 G
1$
#220000
0$
#225000
b11 c
b1001000000000000 2
b1000000000001 6
b100100001111011110110011 U
b100100001111011110110011 X
b1011100 E
b1011100 B
b1000000000001 S
b1000000000001 l
b1010000 _
b1010000 ?
b1011000 G
b1011000 D
b100100001110011100110011 Z
b1010100 I
b10 b
b100000100011000110011 Y
b1010100 C
b1010000 H
b1000000000100000000010110110011 W
b1010000 A
b11111111111111111110111111111111 )
b11111111111111111110111111111111 k
b100000000010100110011 T
b1001100 @
b1000000000001 *
b1000000000001 d
1$
#230000
0$
#235000
b100 c
b1001000000000001 S
b1001000000000001 l
b1010100 _
b1010100 ?
b100010001100000110011 U
b100010001100000110011 X
b1100000 E
b1100000 B
b1000000000100000000010110110011 T
b1010000 @
b11111111111111111110111111111111 *
b11111111111111111110111111111111 d
b100000100011000110011 W
b1010100 A
b1000000000001 )
b1000000000001 k
b11 b
b100100001110011100110011 Y
b1011000 C
b1001000000000000 e
b1001000000000000 .
b1001000000000000 1
b1000000000001 h
b1000000000001 3
b1000000000001 5
b1010100 H
b1011100 D
b100100001111011110110011 Z
b1011000 I
b1011100 G
1$
#240000
0$
#245000
b101 c
b1000000000001 2
b10000000000000 6
b100010101100010110011 U
b100010101100010110011 X
b1100100 E
b1100100 B
b1000000000000 S
b1000000000000 l
b1011000 _
b1011000 ?
b1100000 G
b1100000 D
b100010001100000110011 Z
b1011100 I
b100 b
b100100001111011110110011 Y
b1011100 C
b1011000 H
b100100001110011100110011 W
b1011000 A
b1001000000000000 0
b1001000000000001 )
b1001000000000001 k
b100000100011000110011 T
b1010100 @
b1000000000001 *
b1000000000001 d
1$
#250000
0$
#255000
b110 c
b100000000000000 S
b100000000000000 l
b1011100 _
b1011100 ?
b1000000000100010101100100110011 U
b1000000000100010101100100110011 X
b1101000 E
b1101000 B
b100100001110011100110011 T
b1011000 @
b1001000000000001 *
b1001000000000001 d
b100100001111011110110011 W
b1011100 A
b1000000000000 )
b1000000000000 k
b101 b
b100010001100000110011 Y
b1100000 C
b1000000000001 e
b1000000000001 .
b1000000000001 1
b10000000000000 h
b10000000000000 3
b10000000000000 5
b1011100 H
b1100100 D
b100010101100010110011 Z
b1100000 I
b1100100 G
1$
#260000
0$
#265000
b111 c
b1000001010100110110011 U
b1000001010100110110011 X
b1101100 E
b1101100 B
b1000000000000 S
b1000000000000 l
b1100000 _
b1100000 ?
b1101000 G
b1101000 D
b1000000000100010101100100110011 Z
b1100100 I
b110 b
b100010101100010110011 Y
b1100100 C
b1100000 H
b100010001100000110011 W
b1100000 A
b1000000000001 0
b100000000000000 )
b100000000000000 k
b100100001111011110110011 T
b1011100 @
b1000000000000 *
b1000000000000 d
1$
#270000
0$
#275000
b1000 c
b10000000000000 2
b1000000000001 6
b1100100 _
b1100100 ?
b1000001011101000110011 U
b1000001011101000110011 X
b1110000 E
b1110000 B
b100010001100000110011 T
b1100000 @
b100000000000000 *
b100000000000000 d
b100010101100010110011 W
b1100100 A
b1000000000000 )
b1000000000000 k
b111 b
b1000000000100010101100100110011 Y
b1101000 C
b1100100 H
b1101100 D
b1000001010100110110011 Z
b1101000 I
b1101100 G
1$
#280000
0$
#285000
b1001 c
bx U
bx X
b1110100 E
b1110100 B
b1 S
b1 l
b1101000 _
b1101000 ?
b1110000 G
b1110000 D
b1000001011101000110011 Z
b1101100 I
b1000 b
b1000001010100110110011 Y
b1101100 C
b10000000000000 e
b10000000000000 .
b10000000000000 1
b1000000000001 h
b1000000000001 3
b1000000000001 5
b1101000 H
b1000000000100010101100100110011 W
b1101000 A
b100010101100010110011 T
b1100100 @
b1000000000000 *
b1000000000000 d
1$
#290000
0$
#295000
b0 c
0j
b0 :
0>
bx 2
bx 6
b1101100 _
b1101100 ?
b1111000 E
b1111000 B
b1000000000100010101100100110011 T
b1101000 @
b1000001010100110110011 W
b1101100 A
b10000000000000 0
b1 )
b1 k
b1001 b
b1000001011101000110011 Y
b1110000 C
b1101100 H
b1110100 D
bx Z
b1110000 I
b1110100 G
1$
#300000
0$
#305000
b1111100 E
b1111100 B
bx S
bx l
b1110000 _
b1110000 ?
b1111000 G
b1111000 D
b1110100 I
0i
b0 b
0=
b0 9
bx Y
b1110100 C
bx e
bx .
bx 1
b1110000 h
bx 3
bx 5
b1110000 H
b1000001011101000110011 W
b1110000 A
b1000001010100110110011 T
b1101100 @
b1 *
b1 d
1$
#310000
0$
#315000
b1110100 _
b1110100 ?
b10000000 E
b10000000 B
b1000001011101000110011 T
b1110000 @
0<
b0 8
bx W
b1110100 A
bx 0
b1110100 )
bx k
b1111000 C
b1110100 h
b1110100 H
b1111100 D
b1111000 I
b1111100 G
1$
#320000
0$
#325000
b10000100 E
b10000100 B
b1111000 _
b1111000 ?
b10000000 G
b10000000 D
b1111100 I
b1111100 C
b1111000 h
b1111000 H
b1111000 )
b1111000 A
0;
b0 7
bx T
b1110100 @
b1110100 *
bx d
1$
#330000
0$
#335000
b1111100 _
b1111100 ?
b10001000 E
b10001000 B
b1111000 *
b1111000 @
b1111100 )
b1111100 A
b10000000 C
b1111100 h
b1111100 H
b10000100 D
b10000000 I
b10000100 G
1$
#340000
0$
#345000
b10001100 E
b10001100 B
b10000000 _
b10000000 ?
b10001000 G
b10001000 D
b10000100 I
b10000100 C
b10000000 h
b10000000 H
b10000000 )
b10000000 A
b1111100 *
b1111100 @
1$
#350000
0$
#355000
b10000100 _
b10000100 ?
b10010000 E
b10010000 B
b10000000 *
b10000000 @
b10000100 )
b10000100 A
b10001000 C
b10000100 h
b10000100 H
b10001100 D
b10001000 I
b10001100 G
1$
#360000
0$
#365000
b10010100 E
b10010100 B
b10001000 _
b10001000 ?
b10010000 G
b10010000 D
b10001100 I
b10001100 C
b10001000 h
b10001000 H
b10001000 )
b10001000 A
b10000100 *
b10000100 @
1$
#370000
0$
#375000
b10001100 _
b10001100 ?
b10011000 E
b10011000 B
b10001000 *
b10001000 @
b10001100 )
b10001100 A
b10010000 C
b10001100 h
b10001100 H
b10010100 D
b10010000 I
b10010100 G
1$
#380000
0$
#385000
b10011100 E
b10011100 B
b10010000 _
b10010000 ?
b10011000 G
b10011000 D
b10010100 I
b10010100 C
b10010000 h
b10010000 H
b10010000 )
b10010000 A
b10001100 *
b10001100 @
1$
#390000
0$
#395000
b10010100 _
b10010100 ?
b10100000 E
b10100000 B
b10010000 *
b10010000 @
b10010100 )
b10010100 A
b10011000 C
b10010100 h
b10010100 H
b10011100 D
b10011000 I
b10011100 G
1$
#400000
0$
#405000
b10100100 E
b10100100 B
b10011000 _
b10011000 ?
b10100000 G
b10100000 D
b10011100 I
b10011100 C
b10011000 h
b10011000 H
b10011000 )
b10011000 A
b10010100 *
b10010100 @
1$
#410000
0$
#415000
b10011100 _
b10011100 ?
b10101000 E
b10101000 B
b10011000 *
b10011000 @
b10011100 )
b10011100 A
b10100000 C
b10011100 h
b10011100 H
b10100100 D
b10100000 I
b10100100 G
1$
#420000
0$
#425000
b10101100 E
b10101100 B
b10100000 _
b10100000 ?
b10101000 G
b10101000 D
b10100100 I
b10100100 C
b10100000 h
b10100000 H
b10100000 )
b10100000 A
b10011100 *
b10011100 @
1$
#430000
0$
#435000
b10100100 _
b10100100 ?
b10110000 E
b10110000 B
b10100000 *
b10100000 @
b10100100 )
b10100100 A
b10101000 C
b10100100 h
b10100100 H
b10101100 D
b10101000 I
b10101100 G
1$
#440000
0$
#445000
b10110100 E
b10110100 B
b10101000 _
b10101000 ?
b10110000 G
b10110000 D
b10101100 I
b10101100 C
b10101000 h
b10101000 H
b10101000 )
b10101000 A
b10100100 *
b10100100 @
1$
#450000
0$
#455000
b10101100 _
b10101100 ?
b10111000 E
b10111000 B
b10101000 *
b10101000 @
b10101100 )
b10101100 A
b10110000 C
b10101100 h
b10101100 H
b10110100 D
b10110000 I
b10110100 G
1$
#460000
0$
#465000
b10111100 E
b10111100 B
b10110000 _
b10110000 ?
b10111000 G
b10111000 D
b10110100 I
b10110100 C
b10110000 h
b10110000 H
b10110000 )
b10110000 A
b10101100 *
b10101100 @
1$
#470000
0$
#475000
b10110100 _
b10110100 ?
b11000000 E
b11000000 B
b10110000 *
b10110000 @
b10110100 )
b10110100 A
b10111000 C
b10110100 h
b10110100 H
b10111100 D
b10111000 I
b10111100 G
1$
#480000
0$
#485000
b11000100 E
b11000100 B
b10111000 _
b10111000 ?
b11000000 G
b11000000 D
b10111100 I
b10111100 C
b10111000 h
b10111000 H
b10111000 )
b10111000 A
b10110100 *
b10110100 @
1$
#490000
0$
#495000
b10111100 _
b10111100 ?
b11001000 E
b11001000 B
b10111000 *
b10111000 @
b10111100 )
b10111100 A
b11000000 C
b10111100 h
b10111100 H
b11000100 D
b11000000 I
b11000100 G
1$
#500000
0$
#505000
b11001100 E
b11001100 B
b11000000 _
b11000000 ?
b11001000 G
b11001000 D
b11000100 I
b11000100 C
b11000000 h
b11000000 H
b11000000 )
b11000000 A
b10111100 *
b10111100 @
b10101 n
b0 m
1$
