sim/hazard_test.vcd
$date
	Sun Jun 21 03:42:47 2026
$end
$version
	Icarus Verilog
$end
$timescale
	1ps
$end
$scope module HazardTest $end
$scope module test_cpu $end
$var wire 1 ! FLUSH_E $end
$var wire 32 " NOP [31:0] $end
$var wire 32 # WIRED4_F [31:0] $end
$var wire 1 $ clk $end
$var wire 1 % reset $end
$var wire 1 & WE_M $end
$var wire 1 ' WE_E $end
$var wire 1 ( WE_D $end
$var wire 32 ) WBMEMMUX_OUT [31:0] $end
$var wire 32 * WBDataW [31:0] $end
$var wire 1 + SZ_M $end
$var wire 1 , SZ_E $end
$var wire 1 - SZ_D $end
$var wire 32 . RS2MUX_OUT [31:0] $end
$var wire 2 / RS2MUX [1:0] $end
$var wire 32 0 RS2M [31:0] $end
$var wire 32 1 RS2E [31:0] $end
$var wire 32 2 RS2D [31:0] $end
$var wire 32 3 RS1MUX_OUT [31:0] $end
$var wire 2 4 RS1MUX [1:0] $end
$var wire 32 5 RS1E [31:0] $end
$var wire 32 6 RS1D [31:0] $end
$var wire 2 7 REG_MUX_W [1:0] $end
$var wire 2 8 REG_MUX_M [1:0] $end
$var wire 2 9 REG_MUX_E [1:0] $end
$var wire 2 : REG_MUX_D [1:0] $end
$var wire 1 ; REG_EN_W $end
$var wire 1 < REG_EN_M $end
$var wire 1 = REG_EN_E $end
$var wire 1 > REG_EN_D $end
$var wire 32 ? PCPlusImmE [31:0] $end
$var wire 32 @ PCPlus4W [31:0] $end
$var wire 32 A PCPlus4M [31:0] $end
$var wire 32 B PCPlus4F [31:0] $end
$var wire 32 C PCPlus4E [31:0] $end
$var wire 32 D PCPlus4D [31:0] $end
$var wire 32 E PCMUX_OUT [31:0] $end
$var wire 1 F PCMUX $end
$var wire 32 G PCF [31:0] $end
$var wire 32 H PCE [31:0] $end
$var wire 32 I PCD [31:0] $end
$var wire 2 J NUM_BYTES_M [1:0] $end
$var wire 2 K NUM_BYTES_E [1:0] $end
$var wire 2 L NUM_BYTES_D [1:0] $end
$var wire 32 M MEMW [31:0] $end
$var wire 32 N MEMM [31:0] $end
$var wire 1 O JUMP_E $end
$var wire 1 P JUMP_D $end
$var wire 1 Q JALR_E $end
$var wire 1 R JALR_D $end
$var wire 32 S JALRMUX_OUT [31:0] $end
$var wire 32 T InstrW [31:0] $end
$var wire 32 U InstrMUX_OUT [31:0] $end
$var wire 1 V InstrMUX $end
$var wire 32 W InstrM [31:0] $end
$var wire 32 X InstrF [31:0] $end
$var wire 32 Y InstrE [31:0] $end
$var wire 32 Z InstrD [31:0] $end
$var wire 32 [ ImmW [31:0] $end
$var wire 32 \ ImmM [31:0] $end
$var wire 32 ] ImmE [31:0] $end
$var wire 32 ^ ImmD [31:0] $end
$var wire 32 _ CTAddrE [31:0] $end
$var wire 1 ` BR_EN_E $end
$var wire 1 a BR_EN_D $end
$var wire 4 b ALU_SEL_E [3:0] $end
$var wire 4 c ALU_SEL_D [3:0] $end
$var wire 32 d ALUW [31:0] $end
$var wire 32 e ALUMUX2_OUT [31:0] $end
$var wire 1 f ALUMUX2_E $end
$var wire 1 g ALUMUX2_D $end
$var wire 32 h ALUMUX1_OUT [31:0] $end
$var wire 1 i ALUMUX1_E $end
$var wire 1 j ALUMUX1_D $end
$var wire 32 k ALUM [31:0] $end
$var wire 32 l ALUE [31:0] $end
$upscope $end
$upscope $end
$scope module HazardTest $end
$var reg 1 $ clk $end
$var reg 1 % reset $end
$var integer 32 m errors [31:0] $end
$var integer 32 n i [31:0] $end
$upscope $end
$enddefinitions $end
$comment Show the parameter values. $end
$dumpall
$end
#0
$dumpvars
bx n
bx m
bx l
bx k
xj
xi
bx h
xg
xf
bx e
bx d
bx c
bx b
xa
x`
bx _
bx ^
bx ]
bx \
bx [
bx Z
bx Y
bx X
bx W
xV
bx U
bx T
bx S
xR
xQ
xP
xO
bx N
bx M
bx L
bx K
bx J
bx I
bx H
bx G
xF
bx E
bx D
bx C
bx B
bx A
bx @
bx ?
x>
x=
x<
x;
bx :
bx 9
bx 8
bx 7
bx 6
bx 5
bx 4
bx 3
bx 2
bx 1
bx 0
bx /
bx .
x-
x,
x+
bx *
bx )
x(
x'
x&
1%
0$
b100 #
b0 "
x!
$end
#5000
b0 L
0-
0(
0R
0a
0P
b0 c
0g
0j
b0 :
0>
b0 2
b0 6
b100 E
0!
b0 ^
b0 S
b0 l
b0 _
b0 ?
b0xxxxxxxx N
b0 e
b0 .
b0 /
b0 3
b0 4
b0 D
b0 Z
b0 I
0`
0f
b0 h
0i
b0 b
0Q
0O
b0 K
0,
0'
0=
b0 9
b0 Y
b0 C
b0 1
b0 5
b0 ]
b0 H
b0 J
0+
0&
0<
b0 )
b0 8
b0 W
b0 A
b0 0
b0 k
b0 \
0;
b0 *
b0 7
b0 T
b0 @
b0 M
b0 d
b0 [
b100110111 U
0V
0F
b100110111 X
b100 B
b0 G
1$
#6000
0%
#10000
0$
#15000
b11 :
1>
b110110111 U
b110110111 X
b1000 E
b1000 B
b0xxxxxxxx M
b100 D
b100110111 Z
b100 G
1$
#20000
0$
#25000
b1000110111 U
b1000110111 X
b1100 E
b1100 B
b1000 G
b1000 D
b110110111 Z
b100 I
1=
b11 9
b100110111 Y
b100 C
1$
#30000
0$
#35000
b100 _
b100 ?
b100 S
b100 l
b1010110111 U
b1010110111 X
b10000 E
b10000 B
1<
b11 8
b100110111 W
b0 )
b100 A
b110110111 Y
b1000 C
b100 h
b100 H
b1100 D
b1000110111 Z
b1000 I
b1100 G
1$
#40000
0$
#45000
b1100110111 U
b1100110111 X
b10100 E
b10100 B
b1000 _
b1000 ?
b1000 S
b1000 l
b10000 G
b10000 D
b1010110111 Z
b1100 I
b1000110111 Y
b1100 C
b1000 h
b1000 H
b110110111 W
b1000 A
b100 k
1;
b11 7
b100110111 T
b0 *
b100 @
1$
#50000
0$
#55000
b1100 _
b1100 ?
b1100 S
b1100 l
b1110110111 U
b1110110111 X
b11000 E
b11000 B
b110110111 T
b1000 @
b100 d
b1000110111 W
b1100 A
b1000 k
b1010110111 Y
b10000 C
b1100 h
b1100 H
b10100 D
b1100110111 Z
b10000 I
b10100 G
1$
#60000
0$
#65000
b10000110111 U
b10000110111 X
b11100 E
b11100 B
b10000 _
b10000 ?
b10000 S
b10000 l
b11000 G
b11000 D
b1110110111 Z
b10100 I
b1100110111 Y
b10100 C
b10000 h
b10000 H
b1010110111 W
b10000 A
b1100 k
b1000110111 T
b1100 @
b1000 d
1$
#70000
0$
#75000
b10100 _
b10100 ?
b10100 S
b10100 l
b10010110111 U
b10010110111 X
b100000 E
b100000 B
b1010110111 T
b10000 @
b1100 d
b1100110111 W
b10100 A
b10000 k
b1110110111 Y
b11000 C
b10100 h
b10100 H
b11100 D
b10000110111 Z
b11000 I
b11100 G
1$
#80000
0$
#85000
b10110111 U
b10110111 X
b100100 E
b100100 B
b11000 _
b11000 ?
b11000 S
b11000 l
b100000 G
b100000 D
b10010110111 Z
b11100 I
b10000110111 Y
b11100 C
b11000 h
b11000 H
b1110110111 W
b11000 A
b10100 k
b1100110111 T
b10100 @
b10000 d
1$
#90000
0$
#95000
b11100 _
b11100 ?
b11100 S
b11100 l
b11111111111100001000000010010011 U
b11111111111100001000000010010011 X
b101000 E
b101000 B
b1110110111 T
b11000 @
b10100 d
b10000110111 W
b11100 A
b11000 k
b10010110111 Y
b100000 C
b11100 h
b11100 H
b100100 D
b10110111 Z
b100000 I
b100100 G
1$
#100000
0$
#105000
1g
1j
b1 :
bx 2
bx 6
b11111111111000001000000100010011 U
b11111111111000001000000100010011 X
b101100 E
b101100 B
b11111111111111111111111111111111 ^
b100000 _
b100000 ?
b100000 S
b100000 l
b101000 G
b101000 D
b11111111111100001000000010010011 Z
b100100 I
b10110111 Y
b100100 C
b100000 h
b100000 H
b10010110111 W
b100000 A
b11100 k
b10000110111 T
b11100 @
b11000 d
1$
#110000
0$
#115000
b1 4
b100011 _
b100011 ?
b11111111111111111111111111111111 S
b11111111111111111111111111111111 l
b11111111111111111111111111111110 ^
b11111111110100010000000110010011 U
b11111111110100010000000110010011 X
b110000 E
b110000 B
b10010110111 T
b100000 @
b11100 d
b10110111 W
b100100 A
b100000 k
1f
1i
b1 9
b11111111111100001000000010010011 Y
b101000 C
b11111111111111111111111111111111 e
bx .
bx 1
b0 3
bx 5
b11111111111111111111111111111111 ]
b0 h
b100100 H
b101100 D
b11111111111000001000000100010011 Z
b101000 I
b101100 G
1$
#120000
0$
#125000
b100100000001000010011 U
b100100000001000010011 X
b110100 E
b110100 B
b11111111111111111111111111111101 ^
b0 6
b100110 _
b100110 ?
b11111111111111111111111111111101 S
b11111111111111111111111111111101 l
b110000 G
b110000 D
b11111111110100010000000110010011 Z
b101100 I
b11111111111000001000000100010011 Y
b101100 C
b11111111111111111111111111111110 e
b11111111111111111111111111111110 ]
b101000 H
b1 8
b11111111111100001000000010010011 W
b101000 A
bx 0
b11111111111111111111111111111111 k
b11111111111111111111111111111111 h
b11111111111111111111111111111111 3
b11111111111111111111111111111111 )
b11111111111111111111111111111111 \
b10110111 T
b100100 @
b100000 d
1$
#130000
0$
#135000
b11111111111111111111111111111010 S
b11111111111111111111111111111010 l
b101001 _
b101001 ?
b11111111111111111111111111111111 2
b1 ^
b101000100000001010010011 U
b101000100000001010010011 X
b111000 E
b111000 B
b1 7
b11111111111100001000000010010011 T
b101000 @
b11111111111111111111111111111111 d
b11111111111111111111111111111111 *
b11111111111111111111111111111111 [
b11111111111000001000000100010011 W
b101100 A
b11111111111111111111111111111101 h
b11111111111111111111111111111101 3
b11111111111111111111111111111101 )
b11111111111111111111111111111101 k
b11111111111111111111111111111110 \
b11111111110100010000000110010011 Y
b110000 C
b0 5
b11111111111111111111111111111101 e
b11111111111111111111111111111101 ]
b101100 H
b110100 D
b100100000001000010011 Z
b110000 I
b110100 G
1$
#140000
0$
#145000
b1010000101000001100010011 U
b1010000101000001100010011 X
b111100 E
b111100 B
b1010 ^
b110001 _
b110001 ?
b1 S
b1 l
b0 4
bx 2
b111000 G
b111000 D
b101000100000001010010011 Z
b110100 I
b100100000001000010011 Y
b110100 C
b11111111111111111111111111111111 .
b11111111111111111111111111111111 1
b1 e
b1 ]
b110000 H
b11111111110100010000000110010011 W
b110000 A
b0 h
b0 3
b11111111111111111111111111111010 )
b11111111111111111111111111111010 k
b11111111111111111111111111111101 \
b11111111111000001000000100010011 T
b101100 @
b11111111111111111111111111111101 *
b11111111111111111111111111111101 d
b11111111111111111111111111111110 [
1$
#150000
0$
#155000
b1 h
b1 3
b1 4
b1011 S
b1011 l
b111110 _
b111110 ?
b10100 ^
b100100000000010100011 U
b100100000000010100011 X
b1000000 E
b1000000 B
b11111111110100010000000110010011 T
b110000 @
b11111111111111111111111111111010 *
b11111111111111111111111111111010 d
b11111111111111111111111111111101 [
b100100000001000010011 W
b110100 A
b11111111111111111111111111111111 0
b1 )
b1 k
b1 \
b101000100000001010010011 Y
b111000 C
bx .
bx 1
b1010 e
b1010 ]
b110100 H
b111100 D
b1010000101000001100010011 Z
b111000 I
b111100 G
1$
#160000
0$
#165000
1(
b0 :
0>
b11111111111111111111111111111111 2
b1 6
b1000101001000010100011 U
b1000101001000010100011 X
b1000100 E
b1000100 B
b1 ^
b1001100 _
b1001100 ?
b11111 S
b11111 l
b1000000 G
b1000000 D
b100100000000010100011 Z
b111100 I
b1010000101000001100010011 Y
b111100 C
b10100 e
b10100 ]
b111000 H
b101000100000001010010011 W
b111000 A
bx 0
b1011 h
b1011 3
b1011 )
b1011 k
b1010 \
b100100000001000010011 T
b110100 @
b1 *
b1 d
b1 [
1$
#170000
0$
#175000
b1 L
b0 4
b10 S
b10 l
b111101 _
b111101 ?
b11111111111111111111111111111101 2
b1011 6
b1 ^
b1100110010000010100011 U
b1100110010000010100011 X
b1001000 E
b1001000 B
b101000100000001010010011 T
b111000 @
b1011 *
b1011 d
b1010 [
b1010000101000001100010011 W
b111100 A
b1 h
b1 3
b11111 )
b11111 k
b10100 \
1'
0=
b0 9
b100100000000010100011 Y
b1000000 C
b11111111111111111111111111111111 .
b11111111111111111111111111111111 1
b1 5
b1 e
b1 ]
b111100 H
b1000100 D
b1000101001000010100011 Z
b1000000 I
b1000100 G
1$
#180000
0$
#185000
b11 L
b11111111111111111111111111111010 2
b100100000010100000011 U
b100100000010100000011 X
b1001100 E
b1001100 B
b1 ^
b1100 S
b1100 l
b1000001 _
b1000001 ?
b11111 6
b1001000 G
b1001000 D
b1100110010000010100011 Z
b1000100 I
b1 K
b1000101001000010100011 Y
b1000100 C
b11111111111111111111111111111101 .
b11111111111111111111111111111101 1
b1011 h
b1011 3
b1011 5
b1000000 H
1&
0<
b0 8
b100100000000010100011 W
b1000000 A
b11111111111111111111111111111111 0
b1000000 )
b10 k
b1 \
b1010000101000001100010011 T
b111100 @
b11111 *
b11111 d
b10100 [
1$
#190000
0$
#195000
1-
b0 L
0(
b10 :
1>
b100000 S
b100000 l
b1000101 _
b1000101 ?
b11111111111111111111111111111111 2
b1 6
b1 ^
b100101001010110000011 U
b100101001010110000011 X
b1010000 E
b1010000 B
0;
b0 7
b100100000000010100011 T
b1000000 @
b1000000 *
b10 d
b1 [
b1 J
b1000101001000010100011 W
b1000100 )
b1000100 A
b11111111111111111111111111111101 0
b1100 k
b11 K
b1100110010000010100011 Y
b1001000 C
b11111111111111111111111111111010 .
b11111111111111111111111111111010 1
b11111 h
b11111 3
b11111 5
b1000100 H
b1001100 D
b100100000010100000011 Z
b1001000 I
b1001100 G
b0xxxxxxxxxxxxxxxx N
1$
#200000
0$
#205000
b1 L
b1011 6
b100110010011000000011 U
b100110010011000000011 X
b1010100 E
b1010100 B
b1 ^
b10 S
b10 l
b1001001 _
b1001001 ?
b1010000 G
b1010000 D
b100101001010110000011 Z
b1001100 I
b0 K
1,
0'
1=
b10 9
b100100000010100000011 Y
b1001100 C
b11111111111111111111111111111111 .
b11111111111111111111111111111111 1
b1 h
b1 3
b1 5
b1001000 H
b11 J
b1100110010000010100011 W
b1001000 )
b1001000 A
b11111111111111111111111111111010 0
b100000 k
b1000101001000010100011 T
b1000100 *
b1000100 @
b0xxxxxxxxxxxxxxxx M
b1100 d
bx N
1$
#210000
0$
#215000
0-
b11 L
b11111 6
b1100 S
b1100 l
b1001101 _
b1001101 ?
b1 ^
b100100100011010000011 U
b100100100011010000011 X
b1011000 E
b1011000 B
b1100110010000010100011 T
b1001000 *
b1001000 @
bx M
b100000 d
b0 J
1+
0&
1<
b10 8
b100100000010100000011 W
b11111111111111111111111111111111 )
b1001100 A
b11111111111111111111111111111111 0
b10 k
b1 K
b100101001010110000011 Y
b1010000 C
b1011 h
b1011 3
b1011 5
b1001100 H
b1010100 D
b100110010011000000011 Z
b1010000 I
b1010100 G
b11111111111111111111111111111111 N
1$
#220000
0$
#225000
b0 L
b1 6
b100101101011100000011 U
b100101101011100000011 X
b1011100 E
b1011100 B
b1 ^
b100000 S
b100000 l
b1010001 _
b1010001 ?
b11111111111111111111111111111101 )
b11111111111111111111111111111101 N
b1011000 G
b1011000 D
b100100100011010000011 Z
b1010100 I
b11 K
0,
b100110010011000000011 Y
b1010100 C
b11111 h
b11111 3
b11111 5
b1010000 H
b1 J
b100101001010110000011 W
b1010000 A
b1100 k
1;
b10 7
b100100000010100000011 T
b11111111111111111111111111111111 *
b1001100 @
b11111111111111111111111111111111 M
b10 d
1$
#230000
0$
#235000
b1 L
b11111111111111111111111111111010 )
b11111111111111111111111111111010 N
b10 S
b10 l
b1010101 _
b1010101 ?
b1011 6
b1 ^
1V
1F
b0 U
b110001110000011110010011 X
b1011100 E
b1100000 B
b100101001010110000011 T
b1010000 @
b11111111111111111111111111111101 *
b11111111111111111111111111111101 M
b1100 d
b11 J
0+
b100110010011000000011 W
b1010100 A
b100000 k
b0 K
b100100100011010000011 Y
b1011000 C
b1 h
b1 3
b1 5
b1010100 H
b1011100 D
b100101101011100000011 Z
b1011000 I
b1011100 G
1$
#240000
0$
#245000
b0 L
0g
0j
b0 :
0>
b0 2
b0 6
b0 ^
b110001110000011110010011 U
0V
b1100000 E
0F
b1100 S
b1100 l
b1011001 _
b1011001 ?
b11111111 )
b11111111 N
b1100000 D
b0 Z
b1011100 I
b1 K
b100101101011100000011 Y
b1011100 C
b1011 h
b1011 3
b1011 5
b1011000 H
b0 J
b100100100011010000011 W
b1011000 A
b10 k
b100110010011000000011 T
b1010100 @
b11111111111111111111111111111010 *
b11111111111111111111111111111010 M
b100000 d
1$
#250000
0$
#255000
1g
1j
b1 :
1>
b1111111111111101 )
b1111111111111101 N
b1011100 S
b1011100 l
b1011100 _
b1011100 ?
b11111111111111111111111111111010 2
bx 6
b1100 ^
b10011 U
b10011 X
b1100100 E
b1100100 B
b100100100011010000011 T
b1011000 @
b11111111 *
b11111111 M
b10 d
b1 J
b100101101011100000011 W
b1011100 A
b1100 k
0f
0i
b0 K
0=
b0 9
b0 Y
b1100000 C
b0 .
b0 1
b1011100 h
b0 3
b0 5
b0 e
b0 ]
b1011100 H
b110001110000011110010011 Z
b1100000 G
1$
#260000
0$
#265000
b0 2
b0 6
b1101000 E
b1101000 B
b0 ^
b10000000000001001 S
b10000000000001001 l
b1101000 _
b1101000 ?
b0xxxxxxxx N
b10 4
b1100100 G
b1100100 D
b10011 Z
b1100000 I
1f
b1111111111111101 h
1i
1=
b1 9
b110001110000011110010011 Y
b1100 e
b11111111111111111111111111111010 .
b11111111111111111111111111111010 1
b1111111111111101 3
bx 5
b1100 ]
b0 J
0<
b1100000 )
b0 8
b0 W
b1100000 A
b0 0
b1011100 k
b0 \
b100101101011100000011 T
b1011100 @
b1111111111111101 *
b1111111111111101 M
b1100 d
1$
#270000
0$
#275000
b0 4
b0 S
b0 l
b1100000 _
b1100000 ?
b1101100 E
b1101100 B
0;
b0 7
b0 T
b1100000 @
b0 h
b0 3
b1100000 *
b0xxxxxxxx M
b1011100 d
b0 [
1<
b10000000000001001 )
b1 8
b110001110000011110010011 W
b11111111111111111111111111111010 0
b10000000000001001 k
b1100 \
b10011 Y
b1100100 C
b0 .
b0 1
b0 5
b0 e
b0 ]
b1100000 H
b1101000 D
b1100100 I
b1101000 G
1$
#280000
0$
#285000
b1110000 E
b1110000 B
b1100100 _
b1100100 ?
b1101100 G
b1101100 D
b1101000 I
b1101000 C
b1100100 H
b10011 W
b1100100 A
b0 0
b0 )
b0 k
b0 \
1;
b10000000000001001 *
b1 7
b110001110000011110010011 T
b10000000000001001 d
b1100 [
1$
#290000
0$
#295000
b1101000 _
b1101000 ?
b1110100 E
b1110100 B
b10011 T
b1100100 @
b0 *
b0 d
b0 [
b1101000 A
b1101100 C
b1101000 H
b1110000 D
b1101100 I
b1110000 G
1$
#300000
0$
#305000
bx U
bx X
b1111000 E
b1111000 B
b1101100 _
b1101100 ?
b1110100 G
b1110100 D
b1110000 I
b1110000 C
b1101100 H
b1101100 A
b1101000 @
1$
#310000
0$
#315000
0g
0j
b0 :
0>
bx 2
bx 6
b1110000 _
b1110000 ?
b1111100 E
b1111100 B
b1101100 @
b1110000 A
b1110100 C
b1110000 H
b1111000 D
bx Z
b1110100 I
b1111000 G
1$
#320000
0$
#325000
b10000000 E
b10000000 B
bx S
bx l
b1110100 _
b1110100 ?
b1111100 G
b1111100 D
b1111000 I
bx e
0f
0i
0=
b0 9
bx Y
b1111000 C
bx .
bx 1
b1110100 h
bx 3
bx 5
b1110100 H
b1110100 A
b1110000 @
1$
#330000
0$
#335000
b1111000 _
b1111000 ?
b10000100 E
b10000100 B
b1110100 @
0<
b0 8
bx W
b1111000 A
bx 0
b1111000 )
bx k
b1111100 C
b1111000 h
b1111000 H
b10000000 D
b1111100 I
b10000000 G
1$
#340000
0$
#345000
b10001000 E
b10001000 B
b1111100 _
b1111100 ?
b10000100 G
b10000100 D
b10000000 I
b10000000 C
b1111100 h
b1111100 H
b1111100 )
b1111100 A
0;
b0 7
bx T
b1111000 @
b1111000 *
bx d
1$
#350000
0$
#355000
b10000000 _
b10000000 ?
b10001100 E
b10001100 B
b1111100 *
b1111100 @
b10000000 )
b10000000 A
b10000100 C
b10000000 h
b10000000 H
b10001000 D
b10000100 I
b10001000 G
1$
#360000
0$
#365000
b10010000 E
b10010000 B
b10000100 _
b10000100 ?
b10001100 G
b10001100 D
b10001000 I
b10001000 C
b10000100 h
b10000100 H
b10000100 )
b10000100 A
b10000000 *
b10000000 @
1$
#370000
0$
#375000
b10001000 _
b10001000 ?
b10010100 E
b10010100 B
b10000100 *
b10000100 @
b10001000 )
b10001000 A
b10001100 C
b10001000 h
b10001000 H
b10010000 D
b10001100 I
b10010000 G
1$
#380000
0$
#385000
b10011000 E
b10011000 B
b10001100 _
b10001100 ?
b10010100 G
b10010100 D
b10010000 I
b10010000 C
b10001100 h
b10001100 H
b10001100 )
b10001100 A
b10001000 *
b10001000 @
1$
#390000
0$
#395000
b10010000 _
b10010000 ?
b10011100 E
b10011100 B
b10001100 *
b10001100 @
b10010000 )
b10010000 A
b10010100 C
b10010000 h
b10010000 H
b10011000 D
b10010100 I
b10011000 G
1$
#400000
0$
#405000
b10100000 E
b10100000 B
b10010100 _
b10010100 ?
b10011100 G
b10011100 D
b10011000 I
b10011000 C
b10010100 h
b10010100 H
b10010100 )
b10010100 A
b10010000 *
b10010000 @
1$
#410000
0$
#415000
b10011000 _
b10011000 ?
b10100100 E
b10100100 B
b10010100 *
b10010100 @
b10011000 )
b10011000 A
b10011100 C
b10011000 h
b10011000 H
b10100000 D
b10011100 I
b10100000 G
1$
#420000
0$
#425000
b10101000 E
b10101000 B
b10011100 _
b10011100 ?
b10100100 G
b10100100 D
b10100000 I
b10100000 C
b10011100 h
b10011100 H
b10011100 )
b10011100 A
b10011000 *
b10011000 @
1$
#430000
0$
#435000
b10100000 _
b10100000 ?
b10101100 E
b10101100 B
b10011100 *
b10011100 @
b10100000 )
b10100000 A
b10100100 C
b10100000 h
b10100000 H
b10101000 D
b10100100 I
b10101000 G
1$
#440000
0$
#445000
b10110000 E
b10110000 B
b10100100 _
b10100100 ?
b10101100 G
b10101100 D
b10101000 I
b10101000 C
b10100100 h
b10100100 H
b10100100 )
b10100100 A
b10100000 *
b10100000 @
1$
#450000
0$
#455000
b10101000 _
b10101000 ?
b10110100 E
b10110100 B
b10100100 *
b10100100 @
b10101000 )
b10101000 A
b10101100 C
b10101000 h
b10101000 H
b10110000 D
b10101100 I
b10110000 G
1$
#460000
0$
#465000
b10111000 E
b10111000 B
b10101100 _
b10101100 ?
b10110100 G
b10110100 D
b10110000 I
b10110000 C
b10101100 h
b10101100 H
b10101100 )
b10101100 A
b10101000 *
b10101000 @
1$
#470000
0$
#475000
b10110000 _
b10110000 ?
b10111100 E
b10111100 B
b10101100 *
b10101100 @
b10110000 )
b10110000 A
b10110100 C
b10110000 h
b10110000 H
b10111000 D
b10110100 I
b10111000 G
1$
#480000
0$
#485000
b11000000 E
b11000000 B
b10110100 _
b10110100 ?
b10111100 G
b10111100 D
b10111000 I
b10111000 C
b10110100 h
b10110100 H
b10110100 )
b10110100 A
b10110000 *
b10110000 @
1$
#490000
0$
#495000
b10111000 _
b10111000 ?
b11000100 E
b11000100 B
b10110100 *
b10110100 @
b10111000 )
b10111000 A
b10111100 C
b10111000 h
b10111000 H
b11000000 D
b10111100 I
b11000000 G
1$
#500000
0$
#505000
b11001000 E
b11001000 B
b10111100 _
b10111100 ?
b11000100 G
b11000100 D
b11000000 I
b11000000 C
b10111100 h
b10111100 H
b10111100 )
b10111100 A
b10111000 *
b10111000 @
1$
#510000
0$
#515000
b11000000 _
b11000000 ?
b11001100 E
b11001100 B
b10111100 *
b10111100 @
b11000000 )
b11000000 A
b11000100 C
b11000000 h
b11000000 H
b11001000 D
b11000100 I
b11001000 G
1$
#520000
0$
#525000
b11010000 E
b11010000 B
b11000100 _
b11000100 ?
b11001100 G
b11001100 D
b11001000 I
b11001000 C
b11000100 h
b11000100 H
b11000100 )
b11000100 A
b11000000 *
b11000000 @
1$
#530000
0$
#535000
b11001000 _
b11001000 ?
b11010100 E
b11010100 B
b11000100 *
b11000100 @
b11001000 )
b11001000 A
b11001100 C
b11001000 h
b11001000 H
b11010000 D
b11001100 I
b11010000 G
1$
#540000
0$
#545000
b11011000 E
b11011000 B
b11001100 _
b11001100 ?
b11010100 G
b11010100 D
b11010000 I
b11010000 C
b11001100 h
b11001100 H
b11001100 )
b11001100 A
b11001000 *
b11001000 @
1$
#550000
0$
#555000
b11010000 _
b11010000 ?
b11011100 E
b11011100 B
b11001100 *
b11001100 @
b11010000 )
b11010000 A
b11010100 C
b11010000 h
b11010000 H
b11011000 D
b11010100 I
b11011000 G
1$
#560000
0$
#565000
b11100000 E
b11100000 B
b11010100 _
b11010100 ?
b11011100 G
b11011100 D
b11011000 I
b11011000 C
b11010100 h
b11010100 H
b11010100 )
b11010100 A
b11010000 *
b11010000 @
1$
#570000
0$
#575000
b11011000 _
b11011000 ?
b11100100 E
b11100100 B
b11010100 *
b11010100 @
b11011000 )
b11011000 A
b11011100 C
b11011000 h
b11011000 H
b11100000 D
b11011100 I
b11100000 G
1$
#580000
0$
#585000
b11101000 E
b11101000 B
b11011100 _
b11011100 ?
b11100100 G
b11100100 D
b11100000 I
b11100000 C
b11011100 h
b11011100 H
b11011100 )
b11011100 A
b11011000 *
b11011000 @
1$
#590000
0$
#595000
b11100000 _
b11100000 ?
b11101100 E
b11101100 B
b11011100 *
b11011100 @
b11100000 )
b11100000 A
b11100100 C
b11100000 h
b11100000 H
b11101000 D
b11100100 I
b11101000 G
1$
#600000
0$
#605000
b11110000 E
b11110000 B
b11100100 _
b11100100 ?
b11101100 G
b11101100 D
b11101000 I
b11101000 C
b11100100 h
b11100100 H
b11100100 )
b11100100 A
b11100000 *
b11100000 @
1$
#610000
0$
#615000
b11101000 _
b11101000 ?
b11110100 E
b11110100 B
b11100100 *
b11100100 @
b11101000 )
b11101000 A
b11101100 C
b11101000 h
b11101000 H
b11110000 D
b11101100 I
b11110000 G
1$
#620000
0$
#625000
b11111000 E
b11111000 B
b11101100 _
b11101100 ?
b11110100 G
b11110100 D
b11110000 I
b11110000 C
b11101100 h
b11101100 H
b11101100 )
b11101100 A
b11101000 *
b11101000 @
1$
#630000
0$
#635000
b11110000 _
b11110000 ?
b11111100 E
b11111100 B
b11101100 *
b11101100 @
b11110000 )
b11110000 A
b11110100 C
b11110000 h
b11110000 H
b11111000 D
b11110100 I
b11111000 G
1$
#640000
0$
#645000
b100000000 E
b100000000 B
b11110100 _
b11110100 ?
b11111100 G
b11111100 D
b11111000 I
b11111000 C
b11110100 h
b11110100 H
b11110100 )
b11110100 A
b11110000 *
b11110000 @
1$
#650000
0$
#655000
b11111000 _
b11111000 ?
b100000100 E
b100000100 B
b11110100 *
b11110100 @
b11111000 )
b11111000 A
b11111100 C
b11111000 h
b11111000 H
b100000000 D
b11111100 I
b100000000 G
1$
#660000
0$
#665000
b100001000 E
b100001000 B
b11111100 _
b11111100 ?
b100000100 G
b100000100 D
b100000000 I
b100000000 C
b11111100 h
b11111100 H
b11111100 )
b11111100 A
b11111000 *
b11111000 @
1$
#670000
0$
#675000
b100000000 _
b100000000 ?
b100001100 E
b100001100 B
b11111100 *
b11111100 @
b100000000 )
b100000000 A
b100000100 C
b100000000 h
b100000000 H
b100001000 D
b100000100 I
b100001000 G
1$
#680000
0$
#685000
b100010000 E
b100010000 B
b100000100 _
b100000100 ?
b100001100 G
b100001100 D
b100001000 I
b100001000 C
b100000100 h
b100000100 H
b100000100 )
b100000100 A
b100000000 *
b100000000 @
1$
#690000
0$
#695000
b100001000 _
b100001000 ?
b100010100 E
b100010100 B
b100000100 *
b100000100 @
b100001000 )
b100001000 A
b100001100 C
b100001000 h
b100001000 H
b100010000 D
b100001100 I
b100010000 G
1$
#700000
0$
#705000
b100011000 E
b100011000 B
b100001100 _
b100001100 ?
b100010100 G
b100010100 D
b100010000 I
b100010000 C
b100001100 h
b100001100 H
b100001100 )
b100001100 A
b100001000 *
b100001000 @
1$
#710000
0$
#715000
b100010000 _
b100010000 ?
b100011100 E
b100011100 B
b100001100 *
b100001100 @
b100010000 )
b100010000 A
b100010100 C
b100010000 h
b100010000 H
b100011000 D
b100010100 I
b100011000 G
1$
#720000
0$
#725000
b100100000 E
b100100000 B
b100010100 _
b100010100 ?
b100011100 G
b100011100 D
b100011000 I
b100011000 C
b100010100 h
b100010100 H
b100010100 )
b100010100 A
b100010000 *
b100010000 @
1$
#730000
0$
#735000
b100011000 _
b100011000 ?
b100100100 E
b100100100 B
b100010100 *
b100010100 @
b100011000 )
b100011000 A
b100011100 C
b100011000 h
b100011000 H
b100100000 D
b100011100 I
b100100000 G
1$
#740000
0$
#745000
b100101000 E
b100101000 B
b100011100 _
b100011100 ?
b100100100 G
b100100100 D
b100100000 I
b100100000 C
b100011100 h
b100011100 H
b100011100 )
b100011100 A
b100011000 *
b100011000 @
1$
#750000
0$
#755000
b100100000 _
b100100000 ?
b100101100 E
b100101100 B
b100011100 *
b100011100 @
b100100000 )
b100100000 A
b100100100 C
b100100000 h
b100100000 H
b100101000 D
b100100100 I
b100101000 G
1$
#760000
0$
#765000
b100110000 E
b100110000 B
b100100100 _
b100100100 ?
b100101100 G
b100101100 D
b100101000 I
b100101000 C
b100100100 h
b100100100 H
b100100100 )
b100100100 A
b100100000 *
b100100000 @
1$
#770000
0$
#775000
b100101000 _
b100101000 ?
b100110100 E
b100110100 B
b100100100 *
b100100100 @
b100101000 )
b100101000 A
b100101100 C
b100101000 h
b100101000 H
b100110000 D
b100101100 I
b100110000 G
1$
#780000
0$
