sim/n_jump.vcd
$date
	Sun Jun 21 01:45:07 2026
$end
$version
	Icarus Verilog
$end
$timescale
	1ps
$end
$scope module H_Jump $end
$var reg 1 ! clk $end
$var reg 1 " reset $end
$var integer 32 # errors [31:0] $end
$var integer 32 $ i [31:0] $end
$upscope $end
$scope module H_Jump $end
$scope module test_cpu $end
$var wire 1 % FLUSH_E $end
$var wire 32 & NOP [31:0] $end
$var wire 32 ' WIRED4_F [31:0] $end
$var wire 1 ! clk $end
$var wire 1 " reset $end
$var wire 1 ( WE_M $end
$var wire 1 ) WE_E $end
$var wire 1 * WE_D $end
$var wire 32 + WBMEMMUX_OUT [31:0] $end
$var wire 32 , WBDataW [31:0] $end
$var wire 1 - SZ_M $end
$var wire 1 . SZ_E $end
$var wire 1 / SZ_D $end
$var wire 32 0 RS2MUX_OUT [31:0] $end
$var wire 2 1 RS2MUX [1:0] $end
$var wire 32 2 RS2M [31:0] $end
$var wire 32 3 RS2E [31:0] $end
$var wire 32 4 RS2D [31:0] $end
$var wire 32 5 RS1MUX_OUT [31:0] $end
$var wire 2 6 RS1MUX [1:0] $end
$var wire 32 7 RS1E [31:0] $end
$var wire 32 8 RS1D [31:0] $end
$var wire 2 9 REG_MUX_W [1:0] $end
$var wire 2 : REG_MUX_M [1:0] $end
$var wire 2 ; REG_MUX_E [1:0] $end
$var wire 2 < REG_MUX_D [1:0] $end
$var wire 1 = REG_EN_W $end
$var wire 1 > REG_EN_M $end
$var wire 1 ? REG_EN_E $end
$var wire 1 @ REG_EN_D $end
$var wire 32 A PCPlusImmE [31:0] $end
$var wire 32 B PCPlus4W [31:0] $end
$var wire 32 C PCPlus4M [31:0] $end
$var wire 32 D PCPlus4F [31:0] $end
$var wire 32 E PCPlus4E [31:0] $end
$var wire 32 F PCPlus4D [31:0] $end
$var wire 32 G PCMUX_OUT [31:0] $end
$var wire 1 H PCMUX $end
$var wire 32 I PCF [31:0] $end
$var wire 32 J PCE [31:0] $end
$var wire 32 K PCD [31:0] $end
$var wire 2 L NUM_BYTES_M [1:0] $end
$var wire 2 M NUM_BYTES_E [1:0] $end
$var wire 2 N NUM_BYTES_D [1:0] $end
$var wire 32 O MEMW [31:0] $end
$var wire 32 P MEMM [31:0] $end
$var wire 1 Q JUMP_E $end
$var wire 1 R JUMP_D $end
$var wire 1 S JALR_E $end
$var wire 1 T JALR_D $end
$var wire 32 U JALRMUX_OUT [31:0] $end
$var wire 32 V InstrW [31:0] $end
$var wire 32 W InstrMUX_OUT [31:0] $end
$var wire 1 X InstrMUX $end
$var wire 32 Y InstrM [31:0] $end
$var wire 32 Z InstrF [31:0] $end
$var wire 32 [ InstrE [31:0] $end
$var wire 32 \ InstrD [31:0] $end
$var wire 32 ] ImmW [31:0] $end
$var wire 32 ^ ImmM [31:0] $end
$var wire 32 _ ImmE [31:0] $end
$var wire 32 ` ImmD [31:0] $end
$var wire 32 a CTAddrE [31:0] $end
$var wire 1 b BR_EN_E $end
$var wire 1 c BR_EN_D $end
$var wire 4 d ALU_SEL_E [3:0] $end
$var wire 4 e ALU_SEL_D [3:0] $end
$var wire 32 f ALUW [31:0] $end
$var wire 32 g ALUMUX2_OUT [31:0] $end
$var wire 1 h ALUMUX2_E $end
$var wire 1 i ALUMUX2_D $end
$var wire 32 j ALUMUX1_OUT [31:0] $end
$var wire 1 k ALUMUX1_E $end
$var wire 1 l ALUMUX1_D $end
$var wire 32 m ALUM [31:0] $end
$var wire 32 n ALUE [31:0] $end
$upscope $end
$upscope $end
$enddefinitions $end
$comment Show the parameter values. $end
$dumpall
$end
#0
$dumpvars
bx n
bx m
xl
xk
bx j
xi
xh
bx g
bx f
bx e
bx d
xc
xb
bx a
bx `
bx _
bx ^
bx ]
bx \
bx [
bx Z
bx Y
xX
bx W
bx V
bx U
xT
xS
xR
xQ
bx P
bx O
bx N
bx M
bx L
bx K
bx J
bx I
xH
bx G
bx F
bx E
bx D
bx C
bx B
bx A
x@
x?
x>
x=
bx <
bx ;
bx :
bx 9
bx 8
bx 7
bx 6
bx 5
bx 4
bx 3
bx 2
bx 1
bx 0
x/
x.
x-
bx ,
bx +
x*
x)
x(
b100 '
b0 &
x%
bx $
bx #
1"
0!
$end
#5000
b0 N
0/
0*
0T
0c
0R
b0 e
0i
0l
b0 <
0@
b0 4
b0 8
b100 G
0%
b0 `
b0 U
b0 n
b0 a
b0 A
b0xxxxxxxx P
b0 g
b0 0
b0 1
b0 5
b0 6
b0 F
b0 \
b0 K
0b
0h
b0 j
0k
b0 d
0S
0Q
b0 M
0.
0)
0?
b0 ;
b0 [
b0 E
b0 3
b0 7
b0 _
b0 J
b0 L
0-
0(
0>
b0 +
b0 :
b0 Y
b0 C
b0 2
b0 m
b0 ^
0=
b0 ,
b0 9
b0 V
b0 B
b0 O
b0 f
b0 ]
b10110111 W
0X
0H
b10110111 Z
b100 D
b0 I
1!
#6000
0"
#10000
0!
#15000
b11 <
1@
b100110111 W
b100110111 Z
b1000 G
b1000 D
b0xxxxxxxx O
b100 F
b10110111 \
b100 I
1!
#20000
0!
#25000
b100000000000000011101111 W
b100000000000000011101111 Z
b1100 G
b1100 D
b1000 I
b1000 F
b100110111 \
b100 K
1?
b11 ;
b10110111 [
b100 E
1!
#30000
0!
#35000
1R
1i
b0 <
bx 4
b100 a
b100 A
b100 U
b100 n
b1000 `
b1000010110111 W
b1000010110111 Z
b10000 G
b10000 D
1>
b11 :
b10110111 Y
b0 +
b100 C
b100110111 [
b1000 E
b100 j
b100 J
b1100 F
b100000000000000011101111 \
b1000 K
b1100 I
1!
#40000
0!
#45000
0R
0i
b11 <
b0 4
b10011 W
b10011 Z
b10100 D
b1000000000000 `
1%
b10000 A
b10000 a
b10000 U
b10000 n
b10000 I
b10000 F
b1000010110111 \
b1100 K
1h
1Q
b0 ;
b100000000000000011101111 [
b1100 E
b1000 g
bx 0
bx 3
b1000 _
b1000 j
b1000 J
b100110111 Y
b1000 C
b100 m
1=
b11 9
b10110111 V
b0 ,
b100 B
1!
#50000
0!
#55000
b0 <
0@
0%
b10100 G
b0 a
b0 A
b0 U
b0 n
b0 `
b100110111 V
b1000 B
b100 f
b0 :
b100000000000000011101111 Y
b1100 C
bx 2
b10000 m
b1100 +
b1000 ^
0h
0Q
0?
b0 [
b0 E
b0 0
b0 3
b0 g
b0 _
b0 j
b0 J
b0 F
b0 \
b0 K
1!
#60000
0!
#65000
1i
1l
b1 <
1@
b11000 G
b11000 D
b10100 I
b10100 F
b10011 \
b10000 K
0>
b0 Y
b0 +
b0 C
b0 2
b0 m
b0 ^
b0 9
b100000000000000011101111 V
b1100 B
b10000 f
b1100 ,
b1000 ]
1!
#70000
0!
#75000
b10000 a
b10000 A
b11100 G
b11100 D
0=
b0 V
b0 ,
b0 B
b0 f
b0 ]
1h
1k
1?
b1 ;
b10011 [
b10100 E
b0 j
b10000 J
b11000 F
b10100 K
b11000 I
1!
#80000
0!
#85000
b100000 G
b100000 D
b10100 a
b10100 A
b11100 I
b11100 F
b11000 K
b11000 E
b10100 J
1>
b1 :
b10011 Y
b0 +
b10100 C
1!
#90000
0!
#95000
b11000 a
b11000 A
b100100 G
b100100 D
1=
b1 9
b10011 V
b0 ,
b10100 B
b11000 C
b11100 E
b11000 J
b100000 F
b11100 K
b100000 I
1!
#100000
0!
#105000
b10000000000010000000101100111 W
b10000000000010000000101100111 Z
b101000 G
b101000 D
b11100 a
b11100 A
b100100 I
b100100 F
b100000 K
b100000 E
b11100 J
b11100 C
b11000 B
1!
#110000
0!
#115000
1T
1R
b0 <
b100000 a
b100000 A
b100000000 `
b1000100110111 W
b1000100110111 Z
b101100 G
b101100 D
b11100 B
b100000 C
b100100 E
b100000 J
b101000 F
b10000000000010000000101100111 \
b100100 K
b101000 I
1!
#120000
0!
#125000
0T
0R
0i
0l
b11 <
b100000000 U
bx W
bx Z
b110000 D
b1000000000000 `
b100000000 G
1%
b100000000 n
b100100100 A
b101100 I
b101100 F
b1000100110111 \
b101000 K
1S
b100000000 a
1Q
b0 ;
b10000000000010000000101100111 [
b101000 E
b100000000 g
b100000000 _
b100100 J
b100100 C
b100000 B
1!
#130000
0!
#135000
b0 <
0@
0%
b0 U
b0 n
b0 A
b0 `
bx10110111 W
bx10110111 Z
b100000100 D
b100100 B
b0 :
b10000000000010000000101100111 Y
b101000 C
b101000 +
b100000000 m
b100000000 ^
0h
0k
0S
b100000100 G
b0 a
0Q
0?
b0 [
b0 E
b0 g
b0 _
b0 J
b0 F
b0 \
b0 K
b100000000 I
1!
#140000
0!
#145000
b11 <
1@
bx 4
bx 8
bx00110111 W
bx00110111 Z
b100001000 G
b100001000 D
bx000000000000 `
b100000100 I
b100000100 F
bx10110111 \
b100000000 K
0>
b0 Y
b0 +
b0 C
b0 m
b0 ^
b0 9
b10000000000010000000101100111 V
b101000 B
b101000 ,
b100000000 f
b100000000 ]
1!
#150000
0!
#155000
bx a
bx A
bx U
bx n
bx000000000000 `
bx11101111 W
bx11101111 Z
b100001100 G
b100001100 D
0=
b0 V
b0 ,
b0 B
b0 f
b0 ]
1?
b11 ;
bx10110111 [
b100000100 E
bx g
bx 0
bx 3
bx 5
bx 7
bx000000000000 _
b100000000 j
b100000000 J
b100001000 F
bx00110111 \
b100000100 K
b100001000 I
1!
#160000
0!
#165000
1R
1i
b0 <
bx10110111 W
bx10110111 Z
b100010000 G
b100010000 D
bx0 `
b100001100 I
b100001100 F
bx11101111 \
b100001000 K
bx00110111 [
b100001000 E
b100000100 j
b100000100 J
1>
b11 :
bx10110111 Y
bx000000000000 +
b100000100 C
bx 2
bx m
bx000000000000 ^
1!
#170000
0!
#175000
0R
0i
b11 <
1%
bx000000000000 `
bx00010011 W
bx00010011 Z
bx G
b100010100 D
1=
b11 9
bx10110111 V
bx000000000000 ,
b100000100 B
bx f
bx000000000000 ]
bx00110111 Y
b100001000 C
bx0 g
1h
1Q
b0 ;
bx11101111 [
b100001100 E
bx0 _
b100001000 j
b100001000 J
b100010000 F
bx10110111 \
b100001100 K
b100010000 I
1!
#180000
0!
#185000
b0 <
0@
b0 4
b0 8
bx W
bx Z
bx D
b0 `
0%
bx G
b0 a
b0 A
b0 U
b0 n
bx I
b0 F
b0 \
b0 K
0h
0Q
0?
b0 [
b0 E
b0 0
b0 3
b0 5
b0 7
b0 g
b0 _
b0 j
b0 J
b0 :
bx11101111 Y
b100001100 C
b100001100 +
bx0 ^
bx00110111 V
b100001000 B
1!
#190000
0!
#195000
bx 4
bx 8
b0 9
bx11101111 V
b100001100 B
b100001100 ,
bx0 ]
0>
b0 Y
b0 +
b0 C
b0 2
b0 m
b0 ^
bx F
bx \
bx K
1!
#200000
0!
#205000
bx a
bx A
bx U
bx n
bx [
bx E
bx g
bx 0
bx 3
bx 5
bx 7
bx j
bx J
0=
b0 V
b0 ,
b0 B
b0 f
b0 ]
1!
#210000
0!
#215000
bx Y
bx +
bx C
bx 2
bx m
1!
#220000
0!
#225000
bx V
bx ,
bx B
bx f
1!
